('C:\\Users\\User\\Desktop\\CLIENT_OPC_DA\\dwsim_and_opc_da\\build\\get_model_data\\get_model_data.pkg',
 {'BINARY': True,
  'DATA': True,
  'EXECUTABLE': True,
  'EXTENSION': True,
  'PYMODULE': True,
  'PYSOURCE': True,
  'PYZ': False,
  'SPLASH': True},
 [('PYZ-00.pyz',
   'C:\\Users\\User\\Desktop\\CLIENT_OPC_DA\\dwsim_and_opc_da\\build\\get_model_data\\PYZ-00.pyz',
   'PYZ'),
  ('struct',
   'C:\\Users\\User\\Desktop\\CLIENT_OPC_DA\\dwsim_and_opc_da\\build\\get_model_data\\localpycs\\struct.pyc',
   'PYMODULE'),
  ('pyimod01_archive',
   'C:\\Users\\User\\Desktop\\CLIENT_OPC_DA\\dwsim_and_opc_da\\build\\get_model_data\\localpycs\\pyimod01_archive.pyc',
   'PYMODULE'),
  ('pyimod02_importers',
   'C:\\Users\\User\\Desktop\\CLIENT_OPC_DA\\dwsim_and_opc_da\\build\\get_model_data\\localpycs\\pyimod02_importers.pyc',
   'PYMODULE'),
  ('pyimod03_ctypes',
   'C:\\Users\\User\\Desktop\\CLIENT_OPC_DA\\dwsim_and_opc_da\\build\\get_model_data\\localpycs\\pyimod03_ctypes.pyc',
   'PYMODULE'),
  ('pyimod04_pywin32',
   'C:\\Users\\User\\Desktop\\CLIENT_OPC_DA\\dwsim_and_opc_da\\build\\get_model_data\\localpycs\\pyimod04_pywin32.pyc',
   'PYMODULE'),
  ('pyiboot01_bootstrap',
   'c:\\users\\user\\appdata\\local\\programs\\python\\python37\\lib\\site-packages\\PyInstaller\\loader\\pyiboot01_bootstrap.py',
   'PYSOURCE'),
  ('pyi_rth_inspect',
   'c:\\users\\user\\appdata\\local\\programs\\python\\python37\\lib\\site-packages\\PyInstaller\\hooks\\rthooks\\pyi_rth_inspect.py',
   'PYSOURCE'),
  ('pyi_rth_setuptools',
   'c:\\users\\user\\appdata\\local\\programs\\python\\python37\\lib\\site-packages\\PyInstaller\\hooks\\rthooks\\pyi_rth_setuptools.py',
   'PYSOURCE'),
  ('pyi_rth_pkgutil',
   'c:\\users\\user\\appdata\\local\\programs\\python\\python37\\lib\\site-packages\\PyInstaller\\hooks\\rthooks\\pyi_rth_pkgutil.py',
   'PYSOURCE'),
  ('pyi_rth_multiprocessing',
   'c:\\users\\user\\appdata\\local\\programs\\python\\python37\\lib\\site-packages\\PyInstaller\\hooks\\rthooks\\pyi_rth_multiprocessing.py',
   'PYSOURCE'),
  ('pyi_rth_pkgres',
   'c:\\users\\user\\appdata\\local\\programs\\python\\python37\\lib\\site-packages\\PyInstaller\\hooks\\rthooks\\pyi_rth_pkgres.py',
   'PYSOURCE'),
  ('pyi_rth_pythoncom',
   'c:\\users\\user\\appdata\\local\\programs\\python\\python37\\lib\\site-packages\\_pyinstaller_hooks_contrib\\hooks\\rthooks\\pyi_rth_pythoncom.py',
   'PYSOURCE'),
  ('pyi_rth_pywintypes',
   'c:\\users\\user\\appdata\\local\\programs\\python\\python37\\lib\\site-packages\\_pyinstaller_hooks_contrib\\hooks\\rthooks\\pyi_rth_pywintypes.py',
   'PYSOURCE'),
  ('get_model_data',
   'C:\\Users\\User\\Desktop\\CLIENT_OPC_DA\\dwsim_and_opc_da\\get_model_data.py',
   'PYSOURCE'),
  ('python37.dll',
   'c:\\users\\user\\appdata\\local\\programs\\python\\python37\\python37.dll',
   'BINARY'),
  ('VCRUNTIME140.dll',
   'c:\\users\\user\\appdata\\local\\programs\\python\\python37\\VCRUNTIME140.dll',
   'BINARY'),
  ('Python.Runtime.dll',
   'c:\\users\\user\\appdata\\local\\programs\\python\\python37\\lib\\site-packages\\Python.Runtime.dll',
   'BINARY'),
  ('pywin32_system32\\pywintypes37.dll',
   'c:\\users\\user\\appdata\\local\\programs\\python\\python37\\lib\\site-packages\\pywin32_system32\\pywintypes37.dll',
   'BINARY'),
  ('pywin32_system32\\pythoncom37.dll',
   'c:\\users\\user\\appdata\\local\\programs\\python\\python37\\lib\\site-packages\\pywin32_system32\\pythoncom37.dll',
   'BINARY'),
  ('_ctypes.pyd',
   'c:\\users\\user\\appdata\\local\\programs\\python\\python37\\DLLs\\_ctypes.pyd',
   'EXTENSION'),
  ('select.pyd',
   'c:\\users\\user\\appdata\\local\\programs\\python\\python37\\DLLs\\select.pyd',
   'EXTENSION'),
  ('_socket.pyd',
   'c:\\users\\user\\appdata\\local\\programs\\python\\python37\\DLLs\\_socket.pyd',
   'EXTENSION'),
  ('_hashlib.pyd',
   'c:\\users\\user\\appdata\\local\\programs\\python\\python37\\DLLs\\_hashlib.pyd',
   'EXTENSION'),
  ('_queue.pyd',
   'c:\\users\\user\\appdata\\local\\programs\\python\\python37\\DLLs\\_queue.pyd',
   'EXTENSION'),
  ('_lzma.pyd',
   'c:\\users\\user\\appdata\\local\\programs\\python\\python37\\DLLs\\_lzma.pyd',
   'EXTENSION'),
  ('_bz2.pyd',
   'c:\\users\\user\\appdata\\local\\programs\\python\\python37\\DLLs\\_bz2.pyd',
   'EXTENSION'),
  ('pyexpat.pyd',
   'c:\\users\\user\\appdata\\local\\programs\\python\\python37\\DLLs\\pyexpat.pyd',
   'EXTENSION'),
  ('_ssl.pyd',
   'c:\\users\\user\\appdata\\local\\programs\\python\\python37\\DLLs\\_ssl.pyd',
   'EXTENSION'),
  ('_contextvars.pyd',
   'c:\\users\\user\\appdata\\local\\programs\\python\\python37\\DLLs\\_contextvars.pyd',
   'EXTENSION'),
  ('_decimal.pyd',
   'c:\\users\\user\\appdata\\local\\programs\\python\\python37\\DLLs\\_decimal.pyd',
   'EXTENSION'),
  ('_multiprocessing.pyd',
   'c:\\users\\user\\appdata\\local\\programs\\python\\python37\\DLLs\\_multiprocessing.pyd',
   'EXTENSION'),
  ('win32\\win32api.pyd',
   'c:\\users\\user\\appdata\\local\\programs\\python\\python37\\lib\\site-packages\\win32\\win32api.pyd',
   'EXTENSION'),
  ('_distutils_findvs.pyd',
   'c:\\users\\user\\appdata\\local\\programs\\python\\python37\\DLLs\\_distutils_findvs.pyd',
   'EXTENSION'),
  ('unicodedata.pyd',
   'c:\\users\\user\\appdata\\local\\programs\\python\\python37\\DLLs\\unicodedata.pyd',
   'EXTENSION'),
  ('_cffi_backend.cp37-win_amd64.pyd',
   'c:\\users\\user\\appdata\\local\\programs\\python\\python37\\lib\\site-packages\\_cffi_backend.cp37-win_amd64.pyd',
   'EXTENSION'),
  ('cryptography\\hazmat\\bindings\\_rust.pyd',
   'c:\\users\\user\\appdata\\local\\programs\\python\\python37\\lib\\site-packages\\cryptography\\hazmat\\bindings\\_rust.pyd',
   'EXTENSION'),
  ('hiredis\\hiredis.cp37-win_amd64.pyd',
   'c:\\users\\user\\appdata\\local\\programs\\python\\python37\\lib\\site-packages\\hiredis\\hiredis.cp37-win_amd64.pyd',
   'EXTENSION'),
  ('win32\\win32wnet.pyd',
   'c:\\users\\user\\appdata\\local\\programs\\python\\python37\\lib\\site-packages\\win32\\win32wnet.pyd',
   'EXTENSION'),
  ('_overlapped.pyd',
   'c:\\users\\user\\appdata\\local\\programs\\python\\python37\\DLLs\\_overlapped.pyd',
   'EXTENSION'),
  ('_asyncio.pyd',
   'c:\\users\\user\\appdata\\local\\programs\\python\\python37\\DLLs\\_asyncio.pyd',
   'EXTENSION'),
  ('win32\\_win32sysloader.pyd',
   'c:\\users\\user\\appdata\\local\\programs\\python\\python37\\lib\\site-packages\\win32\\_win32sysloader.pyd',
   'EXTENSION'),
  ('clr.pyd',
   'c:\\users\\user\\appdata\\local\\programs\\python\\python37\\lib\\site-packages\\clr.pyd',
   'EXTENSION'),
  ('libcrypto-1_1-x64.dll',
   'c:\\users\\user\\appdata\\local\\programs\\python\\python37\\DLLs\\libcrypto-1_1-x64.dll',
   'BINARY'),
  ('libssl-1_1-x64.dll',
   'c:\\users\\user\\appdata\\local\\programs\\python\\python37\\DLLs\\libssl-1_1-x64.dll',
   'BINARY'),
  ('python3.dll',
   'c:\\users\\user\\appdata\\local\\programs\\python\\python37\\python3.dll',
   'BINARY'),
  ('base_library.zip',
   'C:\\Users\\User\\Desktop\\CLIENT_OPC_DA\\dwsim_and_opc_da\\build\\get_model_data\\base_library.zip',
   'DATA'),
  ('cryptography-41.0.1.dist-info\\LICENSE.BSD',
   'c:\\users\\user\\appdata\\local\\programs\\python\\python37\\lib\\site-packages\\cryptography-41.0.1.dist-info\\LICENSE.BSD',
   'DATA'),
  ('cryptography-41.0.1.dist-info\\INSTALLER',
   'c:\\users\\user\\appdata\\local\\programs\\python\\python37\\lib\\site-packages\\cryptography-41.0.1.dist-info\\INSTALLER',
   'DATA'),
  ('importlib_metadata-6.7.0.dist-info\\RECORD',
   'c:\\users\\user\\appdata\\local\\programs\\python\\python37\\lib\\site-packages\\importlib_metadata-6.7.0.dist-info\\RECORD',
   'DATA'),
  ('importlib_metadata-6.7.0.dist-info\\top_level.txt',
   'c:\\users\\user\\appdata\\local\\programs\\python\\python37\\lib\\site-packages\\importlib_metadata-6.7.0.dist-info\\top_level.txt',
   'DATA'),
  ('cryptography-41.0.1.dist-info\\WHEEL',
   'c:\\users\\user\\appdata\\local\\programs\\python\\python37\\lib\\site-packages\\cryptography-41.0.1.dist-info\\WHEEL',
   'DATA'),
  ('importlib_metadata-6.7.0.dist-info\\WHEEL',
   'c:\\users\\user\\appdata\\local\\programs\\python\\python37\\lib\\site-packages\\importlib_metadata-6.7.0.dist-info\\WHEEL',
   'DATA'),
  ('cryptography-41.0.1.dist-info\\top_level.txt',
   'c:\\users\\user\\appdata\\local\\programs\\python\\python37\\lib\\site-packages\\cryptography-41.0.1.dist-info\\top_level.txt',
   'DATA'),
  ('importlib_metadata-6.7.0.dist-info\\METADATA',
   'c:\\users\\user\\appdata\\local\\programs\\python\\python37\\lib\\site-packages\\importlib_metadata-6.7.0.dist-info\\METADATA',
   'DATA'),
  ('cryptography-41.0.1.dist-info\\RECORD',
   'c:\\users\\user\\appdata\\local\\programs\\python\\python37\\lib\\site-packages\\cryptography-41.0.1.dist-info\\RECORD',
   'DATA'),
  ('cryptography-41.0.1.dist-info\\LICENSE.APACHE',
   'c:\\users\\user\\appdata\\local\\programs\\python\\python37\\lib\\site-packages\\cryptography-41.0.1.dist-info\\LICENSE.APACHE',
   'DATA'),
  ('cryptography-41.0.1.dist-info\\LICENSE',
   'c:\\users\\user\\appdata\\local\\programs\\python\\python37\\lib\\site-packages\\cryptography-41.0.1.dist-info\\LICENSE',
   'DATA'),
  ('importlib_metadata-6.7.0.dist-info\\INSTALLER',
   'c:\\users\\user\\appdata\\local\\programs\\python\\python37\\lib\\site-packages\\importlib_metadata-6.7.0.dist-info\\INSTALLER',
   'DATA'),
  ('cryptography-41.0.1.dist-info\\METADATA',
   'c:\\users\\user\\appdata\\local\\programs\\python\\python37\\lib\\site-packages\\cryptography-41.0.1.dist-info\\METADATA',
   'DATA'),
  ('importlib_metadata-6.7.0.dist-info\\LICENSE',
   'c:\\users\\user\\appdata\\local\\programs\\python\\python37\\lib\\site-packages\\importlib_metadata-6.7.0.dist-info\\LICENSE',
   'DATA'),
  ('redis-4.6.0.dist-info\\METADATA',
   'c:\\users\\user\\appdata\\local\\programs\\python\\python37\\lib\\site-packages\\redis-4.6.0.dist-info\\METADATA',
   'DATA'),
  ('redis-4.6.0.dist-info\\RECORD',
   'c:\\users\\user\\appdata\\local\\programs\\python\\python37\\lib\\site-packages\\redis-4.6.0.dist-info\\RECORD',
   'DATA'),
  ('redis-4.6.0.dist-info\\REQUESTED',
   'c:\\users\\user\\appdata\\local\\programs\\python\\python37\\lib\\site-packages\\redis-4.6.0.dist-info\\REQUESTED',
   'DATA'),
  ('redis-4.6.0.dist-info\\LICENSE',
   'c:\\users\\user\\appdata\\local\\programs\\python\\python37\\lib\\site-packages\\redis-4.6.0.dist-info\\LICENSE',
   'DATA'),
  ('redis-4.6.0.dist-info\\INSTALLER',
   'c:\\users\\user\\appdata\\local\\programs\\python\\python37\\lib\\site-packages\\redis-4.6.0.dist-info\\INSTALLER',
   'DATA'),
  ('redis-4.6.0.dist-info\\WHEEL',
   'c:\\users\\user\\appdata\\local\\programs\\python\\python37\\lib\\site-packages\\redis-4.6.0.dist-info\\WHEEL',
   'DATA'),
  ('redis-4.6.0.dist-info\\top_level.txt',
   'c:\\users\\user\\appdata\\local\\programs\\python\\python37\\lib\\site-packages\\redis-4.6.0.dist-info\\top_level.txt',
   'DATA')],
 False,
 False,
 False,
 [],
 None,
 None,
 None)
