(['C:\\Users\\User\\Desktop\\CLIENT_OPC_DA\\dwsim_and_opc_da\\set_data_to_model.py'],
 ['C:\\Users\\User\\Desktop\\CLIENT_OPC_DA\\dwsim_and_opc_da'],
 ['codecs'],
 ['c:\\users\\user\\appdata\\local\\programs\\python\\python37\\lib\\site-packages\\_pyinstaller_hooks_contrib\\hooks\\stdhooks',
  'c:\\users\\user\\appdata\\local\\programs\\python\\python37\\lib\\site-packages\\_pyinstaller_hooks_contrib\\hooks\\stdhooks\\__pycache__',
  'c:\\users\\user\\appdata\\local\\programs\\python\\python37\\lib\\site-packages\\_pyinstaller_hooks_contrib\\hooks\\rthooks',
  'c:\\users\\user\\appdata\\local\\programs\\python\\python37\\lib\\site-packages\\_pyinstaller_hooks_contrib\\hooks\\rthooks\\__pycache__',
  'c:\\users\\user\\appdata\\local\\programs\\python\\python37\\lib\\site-packages\\_pyinstaller_hooks_contrib\\hooks'],
 {},
 [],
 [],
 False,
 False,
 False,
 {},
 [],
 [],
 '3.7.0 (v3.7.0:1bf9cc5093, Jun 27 2018, 04:59:51) [MSC v.1914 64 bit (AMD64)]',
 [('pyi_rth_inspect',
   'c:\\users\\user\\appdata\\local\\programs\\python\\python37\\lib\\site-packages\\PyInstaller\\hooks\\rthooks\\pyi_rth_inspect.py',
   'PYSOURCE'),
  ('pyi_rth_setuptools',
   'c:\\users\\user\\appdata\\local\\programs\\python\\python37\\lib\\site-packages\\PyInstaller\\hooks\\rthooks\\pyi_rth_setuptools.py',
   'PYSOURCE'),
  ('pyi_rth_pkgutil',
   'c:\\users\\user\\appdata\\local\\programs\\python\\python37\\lib\\site-packages\\PyInstaller\\hooks\\rthooks\\pyi_rth_pkgutil.py',
   'PYSOURCE'),
  ('pyi_rth_multiprocessing',
   'c:\\users\\user\\appdata\\local\\programs\\python\\python37\\lib\\site-packages\\PyInstaller\\hooks\\rthooks\\pyi_rth_multiprocessing.py',
   'PYSOURCE'),
  ('pyi_rth_pkgres',
   'c:\\users\\user\\appdata\\local\\programs\\python\\python37\\lib\\site-packages\\PyInstaller\\hooks\\rthooks\\pyi_rth_pkgres.py',
   'PYSOURCE'),
  ('pyi_rth_pythoncom',
   'c:\\users\\user\\appdata\\local\\programs\\python\\python37\\lib\\site-packages\\_pyinstaller_hooks_contrib\\hooks\\rthooks\\pyi_rth_pythoncom.py',
   'PYSOURCE'),
  ('pyi_rth_pywintypes',
   'c:\\users\\user\\appdata\\local\\programs\\python\\python37\\lib\\site-packages\\_pyinstaller_hooks_contrib\\hooks\\rthooks\\pyi_rth_pywintypes.py',
   'PYSOURCE'),
  ('set_data_to_model',
   'C:\\Users\\User\\Desktop\\CLIENT_OPC_DA\\dwsim_and_opc_da\\set_data_to_model.py',
   'PYSOURCE')],
 [('pkg_resources',
   'c:\\users\\user\\appdata\\local\\programs\\python\\python37\\lib\\site-packages\\pkg_resources\\__init__.py',
   'PYMODULE'),
  ('pkg_resources._vendor.zipp',
   'c:\\users\\user\\appdata\\local\\programs\\python\\python37\\lib\\site-packages\\pkg_resources\\_vendor\\zipp.py',
   'PYMODULE'),
  ('contextlib',
   'c:\\users\\user\\appdata\\local\\programs\\python\\python37\\lib\\contextlib.py',
   'PYMODULE'),
  ('pkg_resources._vendor.typing_extensions',
   'c:\\users\\user\\appdata\\local\\programs\\python\\python37\\lib\\site-packages\\pkg_resources\\_vendor\\typing_extensions.py',
   'PYMODULE'),
  ('typing',
   'c:\\users\\user\\appdata\\local\\programs\\python\\python37\\lib\\typing.py',
   'PYMODULE'),
  ('pkg_resources._vendor.platformdirs.windows',
   'c:\\users\\user\\appdata\\local\\programs\\python\\python37\\lib\\site-packages\\pkg_resources\\_vendor\\platformdirs\\windows.py',
   'PYMODULE'),
  ('ctypes',
   'c:\\users\\user\\appdata\\local\\programs\\python\\python37\\lib\\ctypes\\__init__.py',
   'PYMODULE'),
  ('ctypes._endian',
   'c:\\users\\user\\appdata\\local\\programs\\python\\python37\\lib\\ctypes\\_endian.py',
   'PYMODULE'),
  ('struct',
   'c:\\users\\user\\appdata\\local\\programs\\python\\python37\\lib\\struct.py',
   'PYMODULE'),
  ('__future__',
   'c:\\users\\user\\appdata\\local\\programs\\python\\python37\\lib\\__future__.py',
   'PYMODULE'),
  ('pkg_resources._vendor.platformdirs.version',
   'c:\\users\\user\\appdata\\local\\programs\\python\\python37\\lib\\site-packages\\pkg_resources\\_vendor\\platformdirs\\version.py',
   'PYMODULE'),
  ('pkg_resources._vendor.platformdirs.unix',
   'c:\\users\\user\\appdata\\local\\programs\\python\\python37\\lib\\site-packages\\pkg_resources\\_vendor\\platformdirs\\unix.py',
   'PYMODULE'),
  ('configparser',
   'c:\\users\\user\\appdata\\local\\programs\\python\\python37\\lib\\configparser.py',
   'PYMODULE'),
  ('pkg_resources._vendor.platformdirs.macos',
   'c:\\users\\user\\appdata\\local\\programs\\python\\python37\\lib\\site-packages\\pkg_resources\\_vendor\\platformdirs\\macos.py',
   'PYMODULE'),
  ('pkg_resources._vendor.platformdirs.api',
   'c:\\users\\user\\appdata\\local\\programs\\python\\python37\\lib\\site-packages\\pkg_resources\\_vendor\\platformdirs\\api.py',
   'PYMODULE'),
  ('pkg_resources._vendor.platformdirs.android',
   'c:\\users\\user\\appdata\\local\\programs\\python\\python37\\lib\\site-packages\\pkg_resources\\_vendor\\platformdirs\\android.py',
   'PYMODULE'),
  ('pkg_resources._vendor.platformdirs.__main__',
   'c:\\users\\user\\appdata\\local\\programs\\python\\python37\\lib\\site-packages\\pkg_resources\\_vendor\\platformdirs\\__main__.py',
   'PYMODULE'),
  ('pkg_resources._vendor.platformdirs',
   'c:\\users\\user\\appdata\\local\\programs\\python\\python37\\lib\\site-packages\\pkg_resources\\_vendor\\platformdirs\\__init__.py',
   'PYMODULE'),
  ('pkg_resources._vendor.packaging.version',
   'c:\\users\\user\\appdata\\local\\programs\\python\\python37\\lib\\site-packages\\pkg_resources\\_vendor\\packaging\\version.py',
   'PYMODULE'),
  ('pkg_resources._vendor.packaging.utils',
   'c:\\users\\user\\appdata\\local\\programs\\python\\python37\\lib\\site-packages\\pkg_resources\\_vendor\\packaging\\utils.py',
   'PYMODULE'),
  ('pkg_resources._vendor.packaging.tags',
   'c:\\users\\user\\appdata\\local\\programs\\python\\python37\\lib\\site-packages\\pkg_resources\\_vendor\\packaging\\tags.py',
   'PYMODULE'),
  ('subprocess',
   'c:\\users\\user\\appdata\\local\\programs\\python\\python37\\lib\\subprocess.py',
   'PYMODULE'),
  ('selectors',
   'c:\\users\\user\\appdata\\local\\programs\\python\\python37\\lib\\selectors.py',
   'PYMODULE'),
  ('threading',
   'c:\\users\\user\\appdata\\local\\programs\\python\\python37\\lib\\threading.py',
   'PYMODULE'),
  ('_threading_local',
   'c:\\users\\user\\appdata\\local\\programs\\python\\python37\\lib\\_threading_local.py',
   'PYMODULE'),
  ('signal',
   'c:\\users\\user\\appdata\\local\\programs\\python\\python37\\lib\\signal.py',
   'PYMODULE'),
  ('logging',
   'c:\\users\\user\\appdata\\local\\programs\\python\\python37\\lib\\logging\\__init__.py',
   'PYMODULE'),
  ('pickle',
   'c:\\users\\user\\appdata\\local\\programs\\python\\python37\\lib\\pickle.py',
   'PYMODULE'),
  ('pprint',
   'c:\\users\\user\\appdata\\local\\programs\\python\\python37\\lib\\pprint.py',
   'PYMODULE'),
  ('_compat_pickle',
   'c:\\users\\user\\appdata\\local\\programs\\python\\python37\\lib\\_compat_pickle.py',
   'PYMODULE'),
  ('string',
   'c:\\users\\user\\appdata\\local\\programs\\python\\python37\\lib\\string.py',
   'PYMODULE'),
  ('pkg_resources._vendor.packaging.specifiers',
   'c:\\users\\user\\appdata\\local\\programs\\python\\python37\\lib\\site-packages\\pkg_resources\\_vendor\\packaging\\specifiers.py',
   'PYMODULE'),
  ('pkg_resources._vendor.packaging.requirements',
   'c:\\users\\user\\appdata\\local\\programs\\python\\python37\\lib\\site-packages\\pkg_resources\\_vendor\\packaging\\requirements.py',
   'PYMODULE'),
  ('pkg_resources._vendor.packaging.metadata',
   'c:\\users\\user\\appdata\\local\\programs\\python\\python37\\lib\\site-packages\\pkg_resources\\_vendor\\packaging\\metadata.py',
   'PYMODULE'),
  ('typing_extensions',
   'c:\\users\\user\\appdata\\local\\programs\\python\\python37\\lib\\site-packages\\typing_extensions.py',
   'PYMODULE'),
  ('email.policy',
   'c:\\users\\user\\appdata\\local\\programs\\python\\python37\\lib\\email\\policy.py',
   'PYMODULE'),
  ('email',
   'c:\\users\\user\\appdata\\local\\programs\\python\\python37\\lib\\email\\__init__.py',
   'PYMODULE'),
  ('email._header_value_parser',
   'c:\\users\\user\\appdata\\local\\programs\\python\\python37\\lib\\email\\_header_value_parser.py',
   'PYMODULE'),
  ('email._encoded_words',
   'c:\\users\\user\\appdata\\local\\programs\\python\\python37\\lib\\email\\_encoded_words.py',
   'PYMODULE'),
  ('base64',
   'c:\\users\\user\\appdata\\local\\programs\\python\\python37\\lib\\base64.py',
   'PYMODULE'),
  ('getopt',
   'c:\\users\\user\\appdata\\local\\programs\\python\\python37\\lib\\getopt.py',
   'PYMODULE'),
  ('gettext',
   'c:\\users\\user\\appdata\\local\\programs\\python\\python37\\lib\\gettext.py',
   'PYMODULE'),
  ('copy',
   'c:\\users\\user\\appdata\\local\\programs\\python\\python37\\lib\\copy.py',
   'PYMODULE'),
  ('email.charset',
   'c:\\users\\user\\appdata\\local\\programs\\python\\python37\\lib\\email\\charset.py',
   'PYMODULE'),
  ('email.encoders',
   'c:\\users\\user\\appdata\\local\\programs\\python\\python37\\lib\\email\\encoders.py',
   'PYMODULE'),
  ('quopri',
   'c:\\users\\user\\appdata\\local\\programs\\python\\python37\\lib\\quopri.py',
   'PYMODULE'),
  ('email.quoprimime',
   'c:\\users\\user\\appdata\\local\\programs\\python\\python37\\lib\\email\\quoprimime.py',
   'PYMODULE'),
  ('email.base64mime',
   'c:\\users\\user\\appdata\\local\\programs\\python\\python37\\lib\\email\\base64mime.py',
   'PYMODULE'),
  ('email.errors',
   'c:\\users\\user\\appdata\\local\\programs\\python\\python37\\lib\\email\\errors.py',
   'PYMODULE'),
  ('email.contentmanager',
   'c:\\users\\user\\appdata\\local\\programs\\python\\python37\\lib\\email\\contentmanager.py',
   'PYMODULE'),
  ('email.headerregistry',
   'c:\\users\\user\\appdata\\local\\programs\\python\\python37\\lib\\email\\headerregistry.py',
   'PYMODULE'),
  ('email.utils',
   'c:\\users\\user\\appdata\\local\\programs\\python\\python37\\lib\\email\\utils.py',
   'PYMODULE'),
  ('email._parseaddr',
   'c:\\users\\user\\appdata\\local\\programs\\python\\python37\\lib\\email\\_parseaddr.py',
   'PYMODULE'),
  ('calendar',
   'c:\\users\\user\\appdata\\local\\programs\\python\\python37\\lib\\calendar.py',
   'PYMODULE'),
  ('argparse',
   'c:\\users\\user\\appdata\\local\\programs\\python\\python37\\lib\\argparse.py',
   'PYMODULE'),
  ('datetime',
   'c:\\users\\user\\appdata\\local\\programs\\python\\python37\\lib\\datetime.py',
   'PYMODULE'),
  ('_strptime',
   'c:\\users\\user\\appdata\\local\\programs\\python\\python37\\lib\\_strptime.py',
   'PYMODULE'),
  ('socket',
   'c:\\users\\user\\appdata\\local\\programs\\python\\python37\\lib\\socket.py',
   'PYMODULE'),
  ('random',
   'c:\\users\\user\\appdata\\local\\programs\\python\\python37\\lib\\random.py',
   'PYMODULE'),
  ('bisect',
   'c:\\users\\user\\appdata\\local\\programs\\python\\python37\\lib\\bisect.py',
   'PYMODULE'),
  ('hashlib',
   'c:\\users\\user\\appdata\\local\\programs\\python\\python37\\lib\\hashlib.py',
   'PYMODULE'),
  ('email._policybase',
   'c:\\users\\user\\appdata\\local\\programs\\python\\python37\\lib\\email\\_policybase.py',
   'PYMODULE'),
  ('email.message',
   'c:\\users\\user\\appdata\\local\\programs\\python\\python37\\lib\\email\\message.py',
   'PYMODULE'),
  ('email.iterators',
   'c:\\users\\user\\appdata\\local\\programs\\python\\python37\\lib\\email\\iterators.py',
   'PYMODULE'),
  ('email.generator',
   'c:\\users\\user\\appdata\\local\\programs\\python\\python37\\lib\\email\\generator.py',
   'PYMODULE'),
  ('uu',
   'c:\\users\\user\\appdata\\local\\programs\\python\\python37\\lib\\uu.py',
   'PYMODULE'),
  ('optparse',
   'c:\\users\\user\\appdata\\local\\programs\\python\\python37\\lib\\optparse.py',
   'PYMODULE'),
  ('email.header',
   'c:\\users\\user\\appdata\\local\\programs\\python\\python37\\lib\\email\\header.py',
   'PYMODULE'),
  ('email.feedparser',
   'c:\\users\\user\\appdata\\local\\programs\\python\\python37\\lib\\email\\feedparser.py',
   'PYMODULE'),
  ('pkg_resources._vendor.packaging.markers',
   'c:\\users\\user\\appdata\\local\\programs\\python\\python37\\lib\\site-packages\\pkg_resources\\_vendor\\packaging\\markers.py',
   'PYMODULE'),
  ('pkg_resources._vendor.packaging._tokenizer',
   'c:\\users\\user\\appdata\\local\\programs\\python\\python37\\lib\\site-packages\\pkg_resources\\_vendor\\packaging\\_tokenizer.py',
   'PYMODULE'),
  ('dataclasses',
   'c:\\users\\user\\appdata\\local\\programs\\python\\python37\\lib\\dataclasses.py',
   'PYMODULE'),
  ('pkg_resources._vendor.packaging._structures',
   'c:\\users\\user\\appdata\\local\\programs\\python\\python37\\lib\\site-packages\\pkg_resources\\_vendor\\packaging\\_structures.py',
   'PYMODULE'),
  ('pkg_resources._vendor.packaging._parser',
   'c:\\users\\user\\appdata\\local\\programs\\python\\python37\\lib\\site-packages\\pkg_resources\\_vendor\\packaging\\_parser.py',
   'PYMODULE'),
  ('ast',
   'c:\\users\\user\\appdata\\local\\programs\\python\\python37\\lib\\ast.py',
   'PYMODULE'),
  ('pkg_resources._vendor.packaging._musllinux',
   'c:\\users\\user\\appdata\\local\\programs\\python\\python37\\lib\\site-packages\\pkg_resources\\_vendor\\packaging\\_musllinux.py',
   'PYMODULE'),
  ('pkg_resources._vendor.packaging._manylinux',
   'c:\\users\\user\\appdata\\local\\programs\\python\\python37\\lib\\site-packages\\pkg_resources\\_vendor\\packaging\\_manylinux.py',
   'PYMODULE'),
  ('pkg_resources._vendor.packaging._elffile',
   'c:\\users\\user\\appdata\\local\\programs\\python\\python37\\lib\\site-packages\\pkg_resources\\_vendor\\packaging\\_elffile.py',
   'PYMODULE'),
  ('pkg_resources._vendor.packaging',
   'c:\\users\\user\\appdata\\local\\programs\\python\\python37\\lib\\site-packages\\pkg_resources\\_vendor\\packaging\\__init__.py',
   'PYMODULE'),
  ('pkg_resources._vendor.more_itertools.recipes',
   'c:\\users\\user\\appdata\\local\\programs\\python\\python37\\lib\\site-packages\\pkg_resources\\_vendor\\more_itertools\\recipes.py',
   'PYMODULE'),
  ('pkg_resources._vendor.more_itertools.more',
   'c:\\users\\user\\appdata\\local\\programs\\python\\python37\\lib\\site-packages\\pkg_resources\\_vendor\\more_itertools\\more.py',
   'PYMODULE'),
  ('queue',
   'c:\\users\\user\\appdata\\local\\programs\\python\\python37\\lib\\queue.py',
   'PYMODULE'),
  ('pkg_resources._vendor.more_itertools',
   'c:\\users\\user\\appdata\\local\\programs\\python\\python37\\lib\\site-packages\\pkg_resources\\_vendor\\more_itertools\\__init__.py',
   'PYMODULE'),
  ('pkg_resources._vendor.jaraco.text',
   'c:\\users\\user\\appdata\\local\\programs\\python\\python37\\lib\\site-packages\\pkg_resources\\_vendor\\jaraco\\text\\__init__.py',
   'PYMODULE'),
  ('importlib.resources',
   'c:\\users\\user\\appdata\\local\\programs\\python\\python37\\lib\\importlib\\resources.py',
   'PYMODULE'),
  ('importlib.abc',
   'c:\\users\\user\\appdata\\local\\programs\\python\\python37\\lib\\importlib\\abc.py',
   'PYMODULE'),
  ('importlib._bootstrap_external',
   'c:\\users\\user\\appdata\\local\\programs\\python\\python37\\lib\\importlib\\_bootstrap_external.py',
   'PYMODULE'),
  ('importlib._bootstrap',
   'c:\\users\\user\\appdata\\local\\programs\\python\\python37\\lib\\importlib\\_bootstrap.py',
   'PYMODULE'),
  ('pkg_resources._vendor.jaraco.functools',
   'c:\\users\\user\\appdata\\local\\programs\\python\\python37\\lib\\site-packages\\pkg_resources\\_vendor\\jaraco\\functools.py',
   'PYMODULE'),
  ('pkg_resources._vendor.jaraco.context',
   'c:\\users\\user\\appdata\\local\\programs\\python\\python37\\lib\\site-packages\\pkg_resources\\_vendor\\jaraco\\context.py',
   'PYMODULE'),
  ('shutil',
   'c:\\users\\user\\appdata\\local\\programs\\python\\python37\\lib\\shutil.py',
   'PYMODULE'),
  ('tarfile',
   'c:\\users\\user\\appdata\\local\\programs\\python\\python37\\lib\\tarfile.py',
   'PYMODULE'),
  ('gzip',
   'c:\\users\\user\\appdata\\local\\programs\\python\\python37\\lib\\gzip.py',
   'PYMODULE'),
  ('_compression',
   'c:\\users\\user\\appdata\\local\\programs\\python\\python37\\lib\\_compression.py',
   'PYMODULE'),
  ('lzma',
   'c:\\users\\user\\appdata\\local\\programs\\python\\python37\\lib\\lzma.py',
   'PYMODULE'),
  ('bz2',
   'c:\\users\\user\\appdata\\local\\programs\\python\\python37\\lib\\bz2.py',
   'PYMODULE'),
  ('pkg_resources._vendor.jaraco',
   'c:\\users\\user\\appdata\\local\\programs\\python\\python37\\lib\\site-packages\\pkg_resources\\_vendor\\jaraco\\__init__.py',
   'PYMODULE'),
  ('pkg_resources._vendor.importlib_resources.simple',
   'c:\\users\\user\\appdata\\local\\programs\\python\\python37\\lib\\site-packages\\pkg_resources\\_vendor\\importlib_resources\\simple.py',
   'PYMODULE'),
  ('pkg_resources._vendor.importlib_resources.readers',
   'c:\\users\\user\\appdata\\local\\programs\\python\\python37\\lib\\site-packages\\pkg_resources\\_vendor\\importlib_resources\\readers.py',
   'PYMODULE'),
  ('pkg_resources._vendor.importlib_resources.abc',
   'c:\\users\\user\\appdata\\local\\programs\\python\\python37\\lib\\site-packages\\pkg_resources\\_vendor\\importlib_resources\\abc.py',
   'PYMODULE'),
  ('pkg_resources._vendor.importlib_resources._legacy',
   'c:\\users\\user\\appdata\\local\\programs\\python\\python37\\lib\\site-packages\\pkg_resources\\_vendor\\importlib_resources\\_legacy.py',
   'PYMODULE'),
  ('pkg_resources._vendor.importlib_resources._itertools',
   'c:\\users\\user\\appdata\\local\\programs\\python\\python37\\lib\\site-packages\\pkg_resources\\_vendor\\importlib_resources\\_itertools.py',
   'PYMODULE'),
  ('pkg_resources._vendor.importlib_resources._compat',
   'c:\\users\\user\\appdata\\local\\programs\\python\\python37\\lib\\site-packages\\pkg_resources\\_vendor\\importlib_resources\\_compat.py',
   'PYMODULE'),
  ('pkg_resources._vendor.importlib_resources._common',
   'c:\\users\\user\\appdata\\local\\programs\\python\\python37\\lib\\site-packages\\pkg_resources\\_vendor\\importlib_resources\\_common.py',
   'PYMODULE'),
  ('pkg_resources._vendor.importlib_resources._adapters',
   'c:\\users\\user\\appdata\\local\\programs\\python\\python37\\lib\\site-packages\\pkg_resources\\_vendor\\importlib_resources\\_adapters.py',
   'PYMODULE'),
  ('pkg_resources._vendor.importlib_resources',
   'c:\\users\\user\\appdata\\local\\programs\\python\\python37\\lib\\site-packages\\pkg_resources\\_vendor\\importlib_resources\\__init__.py',
   'PYMODULE'),
  ('pkg_resources._vendor',
   'c:\\users\\user\\appdata\\local\\programs\\python\\python37\\lib\\site-packages\\pkg_resources\\_vendor\\__init__.py',
   'PYMODULE'),
  ('sysconfig',
   'c:\\users\\user\\appdata\\local\\programs\\python\\python37\\lib\\sysconfig.py',
   'PYMODULE'),
  ('pkg_resources.extern',
   'c:\\users\\user\\appdata\\local\\programs\\python\\python37\\lib\\site-packages\\pkg_resources\\extern\\__init__.py',
   'PYMODULE'),
  ('importlib.util',
   'c:\\users\\user\\appdata\\local\\programs\\python\\python37\\lib\\importlib\\util.py',
   'PYMODULE'),
  ('importlib.machinery',
   'c:\\users\\user\\appdata\\local\\programs\\python\\python37\\lib\\importlib\\machinery.py',
   'PYMODULE'),
  ('imp',
   'c:\\users\\user\\appdata\\local\\programs\\python\\python37\\lib\\imp.py',
   'PYMODULE'),
  ('importlib',
   'c:\\users\\user\\appdata\\local\\programs\\python\\python37\\lib\\importlib\\__init__.py',
   'PYMODULE'),
  ('inspect',
   'c:\\users\\user\\appdata\\local\\programs\\python\\python37\\lib\\inspect.py',
   'PYMODULE'),
  ('dis',
   'c:\\users\\user\\appdata\\local\\programs\\python\\python37\\lib\\dis.py',
   'PYMODULE'),
  ('opcode',
   'c:\\users\\user\\appdata\\local\\programs\\python\\python37\\lib\\opcode.py',
   'PYMODULE'),
  ('textwrap',
   'c:\\users\\user\\appdata\\local\\programs\\python\\python37\\lib\\textwrap.py',
   'PYMODULE'),
  ('tempfile',
   'c:\\users\\user\\appdata\\local\\programs\\python\\python37\\lib\\tempfile.py',
   'PYMODULE'),
  ('email.parser',
   'c:\\users\\user\\appdata\\local\\programs\\python\\python37\\lib\\email\\parser.py',
   'PYMODULE'),
  ('plistlib',
   'c:\\users\\user\\appdata\\local\\programs\\python\\python37\\lib\\plistlib.py',
   'PYMODULE'),
  ('xml.parsers.expat',
   'c:\\users\\user\\appdata\\local\\programs\\python\\python37\\lib\\xml\\parsers\\expat.py',
   'PYMODULE'),
  ('xml.parsers',
   'c:\\users\\user\\appdata\\local\\programs\\python\\python37\\lib\\xml\\parsers\\__init__.py',
   'PYMODULE'),
  ('xml',
   'c:\\users\\user\\appdata\\local\\programs\\python\\python37\\lib\\xml\\__init__.py',
   'PYMODULE'),
  ('xml.sax.expatreader',
   'c:\\users\\user\\appdata\\local\\programs\\python\\python37\\lib\\xml\\sax\\expatreader.py',
   'PYMODULE'),
  ('xml.sax.saxutils',
   'c:\\users\\user\\appdata\\local\\programs\\python\\python37\\lib\\xml\\sax\\saxutils.py',
   'PYMODULE'),
  ('xml.sax',
   'c:\\users\\user\\appdata\\local\\programs\\python\\python37\\lib\\xml\\sax\\__init__.py',
   'PYMODULE'),
  ('xml.sax.handler',
   'c:\\users\\user\\appdata\\local\\programs\\python\\python37\\lib\\xml\\sax\\handler.py',
   'PYMODULE'),
  ('xml.sax._exceptions',
   'c:\\users\\user\\appdata\\local\\programs\\python\\python37\\lib\\xml\\sax\\_exceptions.py',
   'PYMODULE'),
  ('xml.sax.xmlreader',
   'c:\\users\\user\\appdata\\local\\programs\\python\\python37\\lib\\xml\\sax\\xmlreader.py',
   'PYMODULE'),
  ('platform',
   'c:\\users\\user\\appdata\\local\\programs\\python\\python37\\lib\\platform.py',
   'PYMODULE'),
  ('pkgutil',
   'c:\\users\\user\\appdata\\local\\programs\\python\\python37\\lib\\pkgutil.py',
   'PYMODULE'),
  ('zipfile',
   'c:\\users\\user\\appdata\\local\\programs\\python\\python37\\lib\\zipfile.py',
   'PYMODULE'),
  ('py_compile',
   'c:\\users\\user\\appdata\\local\\programs\\python\\python37\\lib\\py_compile.py',
   'PYMODULE'),
  ('multiprocessing.popen_forkserver',
   'c:\\users\\user\\appdata\\local\\programs\\python\\python37\\lib\\multiprocessing\\popen_forkserver.py',
   'PYMODULE'),
  ('multiprocessing.connection',
   'c:\\users\\user\\appdata\\local\\programs\\python\\python37\\lib\\multiprocessing\\connection.py',
   'PYMODULE'),
  ('multiprocessing.resource_sharer',
   'c:\\users\\user\\appdata\\local\\programs\\python\\python37\\lib\\multiprocessing\\resource_sharer.py',
   'PYMODULE'),
  ('multiprocessing.process',
   'c:\\users\\user\\appdata\\local\\programs\\python\\python37\\lib\\multiprocessing\\process.py',
   'PYMODULE'),
  ('xmlrpc.client',
   'c:\\users\\user\\appdata\\local\\programs\\python\\python37\\lib\\xmlrpc\\client.py',
   'PYMODULE'),
  ('xmlrpc',
   'c:\\users\\user\\appdata\\local\\programs\\python\\python37\\lib\\xmlrpc\\__init__.py',
   'PYMODULE'),
  ('http.client',
   'c:\\users\\user\\appdata\\local\\programs\\python\\python37\\lib\\http\\client.py',
   'PYMODULE'),
  ('ssl',
   'c:\\users\\user\\appdata\\local\\programs\\python\\python37\\lib\\ssl.py',
   'PYMODULE'),
  ('http',
   'c:\\users\\user\\appdata\\local\\programs\\python\\python37\\lib\\http\\__init__.py',
   'PYMODULE'),
  ('decimal',
   'c:\\users\\user\\appdata\\local\\programs\\python\\python37\\lib\\decimal.py',
   'PYMODULE'),
  ('_pydecimal',
   'c:\\users\\user\\appdata\\local\\programs\\python\\python37\\lib\\_pydecimal.py',
   'PYMODULE'),
  ('contextvars',
   'c:\\users\\user\\appdata\\local\\programs\\python\\python37\\lib\\contextvars.py',
   'PYMODULE'),
  ('numbers',
   'c:\\users\\user\\appdata\\local\\programs\\python\\python37\\lib\\numbers.py',
   'PYMODULE'),
  ('hmac',
   'c:\\users\\user\\appdata\\local\\programs\\python\\python37\\lib\\hmac.py',
   'PYMODULE'),
  ('multiprocessing.util',
   'c:\\users\\user\\appdata\\local\\programs\\python\\python37\\lib\\multiprocessing\\util.py',
   'PYMODULE'),
  ('multiprocessing.popen_fork',
   'c:\\users\\user\\appdata\\local\\programs\\python\\python37\\lib\\multiprocessing\\popen_fork.py',
   'PYMODULE'),
  ('multiprocessing.forkserver',
   'c:\\users\\user\\appdata\\local\\programs\\python\\python37\\lib\\multiprocessing\\forkserver.py',
   'PYMODULE'),
  ('multiprocessing.semaphore_tracker',
   'c:\\users\\user\\appdata\\local\\programs\\python\\python37\\lib\\multiprocessing\\semaphore_tracker.py',
   'PYMODULE'),
  ('multiprocessing.context',
   'c:\\users\\user\\appdata\\local\\programs\\python\\python37\\lib\\multiprocessing\\context.py',
   'PYMODULE'),
  ('multiprocessing.sharedctypes',
   'c:\\users\\user\\appdata\\local\\programs\\python\\python37\\lib\\multiprocessing\\sharedctypes.py',
   'PYMODULE'),
  ('multiprocessing.heap',
   'c:\\users\\user\\appdata\\local\\programs\\python\\python37\\lib\\multiprocessing\\heap.py',
   'PYMODULE'),
  ('multiprocessing.pool',
   'c:\\users\\user\\appdata\\local\\programs\\python\\python37\\lib\\multiprocessing\\pool.py',
   'PYMODULE'),
  ('multiprocessing.dummy',
   'c:\\users\\user\\appdata\\local\\programs\\python\\python37\\lib\\multiprocessing\\dummy\\__init__.py',
   'PYMODULE'),
  ('multiprocessing.dummy.connection',
   'c:\\users\\user\\appdata\\local\\programs\\python\\python37\\lib\\multiprocessing\\dummy\\connection.py',
   'PYMODULE'),
  ('multiprocessing.queues',
   'c:\\users\\user\\appdata\\local\\programs\\python\\python37\\lib\\multiprocessing\\queues.py',
   'PYMODULE'),
  ('multiprocessing.synchronize',
   'c:\\users\\user\\appdata\\local\\programs\\python\\python37\\lib\\multiprocessing\\synchronize.py',
   'PYMODULE'),
  ('multiprocessing.managers',
   'c:\\users\\user\\appdata\\local\\programs\\python\\python37\\lib\\multiprocessing\\managers.py',
   'PYMODULE'),
  ('multiprocessing.reduction',
   'c:\\users\\user\\appdata\\local\\programs\\python\\python37\\lib\\multiprocessing\\reduction.py',
   'PYMODULE'),
  ('multiprocessing.popen_spawn_posix',
   'c:\\users\\user\\appdata\\local\\programs\\python\\python37\\lib\\multiprocessing\\popen_spawn_posix.py',
   'PYMODULE'),
  ('multiprocessing.popen_spawn_win32',
   'c:\\users\\user\\appdata\\local\\programs\\python\\python37\\lib\\multiprocessing\\popen_spawn_win32.py',
   'PYMODULE'),
  ('multiprocessing.spawn',
   'c:\\users\\user\\appdata\\local\\programs\\python\\python37\\lib\\multiprocessing\\spawn.py',
   'PYMODULE'),
  ('runpy',
   'c:\\users\\user\\appdata\\local\\programs\\python\\python37\\lib\\runpy.py',
   'PYMODULE'),
  ('multiprocessing',
   'c:\\users\\user\\appdata\\local\\programs\\python\\python37\\lib\\multiprocessing\\__init__.py',
   'PYMODULE'),
  ('_distutils_hack',
   'c:\\users\\user\\appdata\\local\\programs\\python\\python37\\lib\\site-packages\\_distutils_hack\\__init__.py',
   'PYMODULE'),
  ('setuptools',
   'c:\\users\\user\\appdata\\local\\programs\\python\\python37\\lib\\site-packages\\setuptools\\__init__.py',
   'PYMODULE'),
  ('setuptools._distutils.versionpredicate',
   'c:\\users\\user\\appdata\\local\\programs\\python\\python37\\lib\\site-packages\\setuptools\\_distutils\\versionpredicate.py',
   'PYMODULE'),
  ('setuptools._distutils.version',
   'c:\\users\\user\\appdata\\local\\programs\\python\\python37\\lib\\site-packages\\setuptools\\_distutils\\version.py',
   'PYMODULE'),
  ('setuptools._distutils.util',
   'c:\\users\\user\\appdata\\local\\programs\\python\\python37\\lib\\site-packages\\setuptools\\_distutils\\util.py',
   'PYMODULE'),
  ('distutils.sysconfig',
   'c:\\users\\user\\appdata\\local\\programs\\python\\python37\\lib\\distutils\\sysconfig.py',
   'PYMODULE'),
  ('distutils.text_file',
   'c:\\users\\user\\appdata\\local\\programs\\python\\python37\\lib\\distutils\\text_file.py',
   'PYMODULE'),
  ('_osx_support',
   'c:\\users\\user\\appdata\\local\\programs\\python\\python37\\lib\\_osx_support.py',
   'PYMODULE'),
  ('distutils.log',
   'c:\\users\\user\\appdata\\local\\programs\\python\\python37\\lib\\distutils\\log.py',
   'PYMODULE'),
  ('distutils',
   'c:\\users\\user\\appdata\\local\\programs\\python\\python37\\lib\\distutils\\__init__.py',
   'PYMODULE'),
  ('distutils.archive_util',
   'c:\\users\\user\\appdata\\local\\programs\\python\\python37\\lib\\distutils\\archive_util.py',
   'PYMODULE'),
  ('distutils.dir_util',
   'c:\\users\\user\\appdata\\local\\programs\\python\\python37\\lib\\distutils\\dir_util.py',
   'PYMODULE'),
  ('distutils.file_util',
   'c:\\users\\user\\appdata\\local\\programs\\python\\python37\\lib\\distutils\\file_util.py',
   'PYMODULE'),
  ('distutils.dep_util',
   'c:\\users\\user\\appdata\\local\\programs\\python\\python37\\lib\\distutils\\dep_util.py',
   'PYMODULE'),
  ('distutils.spawn',
   'c:\\users\\user\\appdata\\local\\programs\\python\\python37\\lib\\distutils\\spawn.py',
   'PYMODULE'),
  ('distutils.debug',
   'c:\\users\\user\\appdata\\local\\programs\\python\\python37\\lib\\distutils\\debug.py',
   'PYMODULE'),
  ('setuptools._distutils.unixccompiler',
   'c:\\users\\user\\appdata\\local\\programs\\python\\python37\\lib\\site-packages\\setuptools\\_distutils\\unixccompiler.py',
   'PYMODULE'),
  ('shlex',
   'c:\\users\\user\\appdata\\local\\programs\\python\\python37\\lib\\shlex.py',
   'PYMODULE'),
  ('setuptools._distutils.text_file',
   'c:\\users\\user\\appdata\\local\\programs\\python\\python37\\lib\\site-packages\\setuptools\\_distutils\\text_file.py',
   'PYMODULE'),
  ('setuptools._distutils.sysconfig',
   'c:\\users\\user\\appdata\\local\\programs\\python\\python37\\lib\\site-packages\\setuptools\\_distutils\\sysconfig.py',
   'PYMODULE'),
  ('setuptools._distutils.spawn',
   'c:\\users\\user\\appdata\\local\\programs\\python\\python37\\lib\\site-packages\\setuptools\\_distutils\\spawn.py',
   'PYMODULE'),
  ('setuptools._distutils.py39compat',
   'c:\\users\\user\\appdata\\local\\programs\\python\\python37\\lib\\site-packages\\setuptools\\_distutils\\py39compat.py',
   'PYMODULE'),
  ('setuptools._distutils.py38compat',
   'c:\\users\\user\\appdata\\local\\programs\\python\\python37\\lib\\site-packages\\setuptools\\_distutils\\py38compat.py',
   'PYMODULE'),
  ('setuptools._distutils.msvccompiler',
   'c:\\users\\user\\appdata\\local\\programs\\python\\python37\\lib\\site-packages\\setuptools\\_distutils\\msvccompiler.py',
   'PYMODULE'),
  ('distutils.msvc9compiler',
   'c:\\users\\user\\appdata\\local\\programs\\python\\python37\\lib\\distutils\\msvc9compiler.py',
   'PYMODULE'),
  ('distutils.ccompiler',
   'c:\\users\\user\\appdata\\local\\programs\\python\\python37\\lib\\distutils\\ccompiler.py',
   'PYMODULE'),
  ('distutils.fancy_getopt',
   'c:\\users\\user\\appdata\\local\\programs\\python\\python37\\lib\\distutils\\fancy_getopt.py',
   'PYMODULE'),
  ('win32con',
   'c:\\users\\user\\appdata\\local\\programs\\python\\python37\\lib\\site-packages\\win32\\lib\\win32con.py',
   'PYMODULE'),
  ('setuptools._distutils.msvc9compiler',
   'c:\\users\\user\\appdata\\local\\programs\\python\\python37\\lib\\site-packages\\setuptools\\_distutils\\msvc9compiler.py',
   'PYMODULE'),
  ('setuptools._distutils.log',
   'c:\\users\\user\\appdata\\local\\programs\\python\\python37\\lib\\site-packages\\setuptools\\_distutils\\log.py',
   'PYMODULE'),
  ('setuptools._distutils.filelist',
   'c:\\users\\user\\appdata\\local\\programs\\python\\python37\\lib\\site-packages\\setuptools\\_distutils\\filelist.py',
   'PYMODULE'),
  ('setuptools._distutils.file_util',
   'c:\\users\\user\\appdata\\local\\programs\\python\\python37\\lib\\site-packages\\setuptools\\_distutils\\file_util.py',
   'PYMODULE'),
  ('setuptools._distutils.fancy_getopt',
   'c:\\users\\user\\appdata\\local\\programs\\python\\python37\\lib\\site-packages\\setuptools\\_distutils\\fancy_getopt.py',
   'PYMODULE'),
  ('setuptools._distutils.extension',
   'c:\\users\\user\\appdata\\local\\programs\\python\\python37\\lib\\site-packages\\setuptools\\_distutils\\extension.py',
   'PYMODULE'),
  ('setuptools._distutils.errors',
   'c:\\users\\user\\appdata\\local\\programs\\python\\python37\\lib\\site-packages\\setuptools\\_distutils\\errors.py',
   'PYMODULE'),
  ('setuptools._distutils.dist',
   'c:\\users\\user\\appdata\\local\\programs\\python\\python37\\lib\\site-packages\\setuptools\\_distutils\\dist.py',
   'PYMODULE'),
  ('distutils.versionpredicate',
   'c:\\users\\user\\appdata\\local\\programs\\python\\python37\\lib\\distutils\\versionpredicate.py',
   'PYMODULE'),
  ('distutils.version',
   'c:\\users\\user\\appdata\\local\\programs\\python\\python37\\lib\\distutils\\version.py',
   'PYMODULE'),
  ('distutils.command',
   'c:\\users\\user\\appdata\\local\\programs\\python\\python37\\lib\\distutils\\command\\__init__.py',
   'PYMODULE'),
  ('distutils.cmd',
   'c:\\users\\user\\appdata\\local\\programs\\python\\python37\\lib\\distutils\\cmd.py',
   'PYMODULE'),
  ('distutils.dist',
   'c:\\users\\user\\appdata\\local\\programs\\python\\python37\\lib\\distutils\\dist.py',
   'PYMODULE'),
  ('setuptools._distutils.dir_util',
   'c:\\users\\user\\appdata\\local\\programs\\python\\python37\\lib\\site-packages\\setuptools\\_distutils\\dir_util.py',
   'PYMODULE'),
  ('setuptools._distutils.dep_util',
   'c:\\users\\user\\appdata\\local\\programs\\python\\python37\\lib\\site-packages\\setuptools\\_distutils\\dep_util.py',
   'PYMODULE'),
  ('setuptools._distutils.debug',
   'c:\\users\\user\\appdata\\local\\programs\\python\\python37\\lib\\site-packages\\setuptools\\_distutils\\debug.py',
   'PYMODULE'),
  ('setuptools._distutils.cygwinccompiler',
   'c:\\users\\user\\appdata\\local\\programs\\python\\python37\\lib\\site-packages\\setuptools\\_distutils\\cygwinccompiler.py',
   'PYMODULE'),
  ('setuptools._distutils.core',
   'c:\\users\\user\\appdata\\local\\programs\\python\\python37\\lib\\site-packages\\setuptools\\_distutils\\core.py',
   'PYMODULE'),
  ('setuptools._distutils.config',
   'c:\\users\\user\\appdata\\local\\programs\\python\\python37\\lib\\site-packages\\setuptools\\_distutils\\config.py',
   'PYMODULE'),
  ('cgi',
   'c:\\users\\user\\appdata\\local\\programs\\python\\python37\\lib\\cgi.py',
   'PYMODULE'),
  ('html',
   'c:\\users\\user\\appdata\\local\\programs\\python\\python37\\lib\\html\\__init__.py',
   'PYMODULE'),
  ('html.entities',
   'c:\\users\\user\\appdata\\local\\programs\\python\\python37\\lib\\html\\entities.py',
   'PYMODULE'),
  ('setuptools._distutils.command.upload',
   'c:\\users\\user\\appdata\\local\\programs\\python\\python37\\lib\\site-packages\\setuptools\\_distutils\\command\\upload.py',
   'PYMODULE'),
  ('setuptools._distutils.command.sdist',
   'c:\\users\\user\\appdata\\local\\programs\\python\\python37\\lib\\site-packages\\setuptools\\_distutils\\command\\sdist.py',
   'PYMODULE'),
  ('glob',
   'c:\\users\\user\\appdata\\local\\programs\\python\\python37\\lib\\glob.py',
   'PYMODULE'),
  ('setuptools._distutils.command.register',
   'c:\\users\\user\\appdata\\local\\programs\\python\\python37\\lib\\site-packages\\setuptools\\_distutils\\command\\register.py',
   'PYMODULE'),
  ('getpass',
   'c:\\users\\user\\appdata\\local\\programs\\python\\python37\\lib\\getpass.py',
   'PYMODULE'),
  ('setuptools._distutils.command.py37compat',
   'c:\\users\\user\\appdata\\local\\programs\\python\\python37\\lib\\site-packages\\setuptools\\_distutils\\command\\py37compat.py',
   'PYMODULE'),
  ('setuptools._distutils.command.install_scripts',
   'c:\\users\\user\\appdata\\local\\programs\\python\\python37\\lib\\site-packages\\setuptools\\_distutils\\command\\install_scripts.py',
   'PYMODULE'),
  ('setuptools._distutils.command.install_lib',
   'c:\\users\\user\\appdata\\local\\programs\\python\\python37\\lib\\site-packages\\setuptools\\_distutils\\command\\install_lib.py',
   'PYMODULE'),
  ('setuptools._distutils.command.install_headers',
   'c:\\users\\user\\appdata\\local\\programs\\python\\python37\\lib\\site-packages\\setuptools\\_distutils\\command\\install_headers.py',
   'PYMODULE'),
  ('setuptools._distutils.command.install_egg_info',
   'c:\\users\\user\\appdata\\local\\programs\\python\\python37\\lib\\site-packages\\setuptools\\_distutils\\command\\install_egg_info.py',
   'PYMODULE'),
  ('setuptools._distutils.command.install_data',
   'c:\\users\\user\\appdata\\local\\programs\\python\\python37\\lib\\site-packages\\setuptools\\_distutils\\command\\install_data.py',
   'PYMODULE'),
  ('setuptools._distutils.command.install',
   'c:\\users\\user\\appdata\\local\\programs\\python\\python37\\lib\\site-packages\\setuptools\\_distutils\\command\\install.py',
   'PYMODULE'),
  ('site',
   'c:\\users\\user\\appdata\\local\\programs\\python\\python37\\lib\\site.py',
   'PYMODULE'),
  ('rlcompleter',
   'c:\\users\\user\\appdata\\local\\programs\\python\\python37\\lib\\rlcompleter.py',
   'PYMODULE'),
  ('_sitebuiltins',
   'c:\\users\\user\\appdata\\local\\programs\\python\\python37\\lib\\_sitebuiltins.py',
   'PYMODULE'),
  ('pydoc',
   'c:\\users\\user\\appdata\\local\\programs\\python\\python37\\lib\\pydoc.py',
   'PYMODULE'),
  ('webbrowser',
   'c:\\users\\user\\appdata\\local\\programs\\python\\python37\\lib\\webbrowser.py',
   'PYMODULE'),
  ('http.server',
   'c:\\users\\user\\appdata\\local\\programs\\python\\python37\\lib\\http\\server.py',
   'PYMODULE'),
  ('socketserver',
   'c:\\users\\user\\appdata\\local\\programs\\python\\python37\\lib\\socketserver.py',
   'PYMODULE'),
  ('mimetypes',
   'c:\\users\\user\\appdata\\local\\programs\\python\\python37\\lib\\mimetypes.py',
   'PYMODULE'),
  ('pydoc_data.topics',
   'c:\\users\\user\\appdata\\local\\programs\\python\\python37\\lib\\pydoc_data\\topics.py',
   'PYMODULE'),
  ('pydoc_data',
   'c:\\users\\user\\appdata\\local\\programs\\python\\python37\\lib\\pydoc_data\\__init__.py',
   'PYMODULE'),
  ('tty',
   'c:\\users\\user\\appdata\\local\\programs\\python\\python37\\lib\\tty.py',
   'PYMODULE'),
  ('setuptools._distutils.command.config',
   'c:\\users\\user\\appdata\\local\\programs\\python\\python37\\lib\\site-packages\\setuptools\\_distutils\\command\\config.py',
   'PYMODULE'),
  ('setuptools._distutils.command.clean',
   'c:\\users\\user\\appdata\\local\\programs\\python\\python37\\lib\\site-packages\\setuptools\\_distutils\\command\\clean.py',
   'PYMODULE'),
  ('setuptools._distutils.command.check',
   'c:\\users\\user\\appdata\\local\\programs\\python\\python37\\lib\\site-packages\\setuptools\\_distutils\\command\\check.py',
   'PYMODULE'),
  ('setuptools._distutils.command.build_scripts',
   'c:\\users\\user\\appdata\\local\\programs\\python\\python37\\lib\\site-packages\\setuptools\\_distutils\\command\\build_scripts.py',
   'PYMODULE'),
  ('setuptools._distutils.command.build_py',
   'c:\\users\\user\\appdata\\local\\programs\\python\\python37\\lib\\site-packages\\setuptools\\_distutils\\command\\build_py.py',
   'PYMODULE'),
  ('setuptools._distutils.command.build_ext',
   'c:\\users\\user\\appdata\\local\\programs\\python\\python37\\lib\\site-packages\\setuptools\\_distutils\\command\\build_ext.py',
   'PYMODULE'),
  ('concurrent.futures',
   'c:\\users\\user\\appdata\\local\\programs\\python\\python37\\lib\\concurrent\\futures\\__init__.py',
   'PYMODULE'),
  ('concurrent.futures.thread',
   'c:\\users\\user\\appdata\\local\\programs\\python\\python37\\lib\\concurrent\\futures\\thread.py',
   'PYMODULE'),
  ('concurrent.futures.process',
   'c:\\users\\user\\appdata\\local\\programs\\python\\python37\\lib\\concurrent\\futures\\process.py',
   'PYMODULE'),
  ('concurrent.futures._base',
   'c:\\users\\user\\appdata\\local\\programs\\python\\python37\\lib\\concurrent\\futures\\_base.py',
   'PYMODULE'),
  ('concurrent',
   'c:\\users\\user\\appdata\\local\\programs\\python\\python37\\lib\\concurrent\\__init__.py',
   'PYMODULE'),
  ('setuptools._distutils.command.build_clib',
   'c:\\users\\user\\appdata\\local\\programs\\python\\python37\\lib\\site-packages\\setuptools\\_distutils\\command\\build_clib.py',
   'PYMODULE'),
  ('setuptools._distutils.command.build',
   'c:\\users\\user\\appdata\\local\\programs\\python\\python37\\lib\\site-packages\\setuptools\\_distutils\\command\\build.py',
   'PYMODULE'),
  ('setuptools._distutils.command.bdist_rpm',
   'c:\\users\\user\\appdata\\local\\programs\\python\\python37\\lib\\site-packages\\setuptools\\_distutils\\command\\bdist_rpm.py',
   'PYMODULE'),
  ('setuptools._distutils.command.bdist_dumb',
   'c:\\users\\user\\appdata\\local\\programs\\python\\python37\\lib\\site-packages\\setuptools\\_distutils\\command\\bdist_dumb.py',
   'PYMODULE'),
  ('setuptools._distutils.command.bdist',
   'c:\\users\\user\\appdata\\local\\programs\\python\\python37\\lib\\site-packages\\setuptools\\_distutils\\command\\bdist.py',
   'PYMODULE'),
  ('setuptools._distutils.command._framework_compat',
   'c:\\users\\user\\appdata\\local\\programs\\python\\python37\\lib\\site-packages\\setuptools\\_distutils\\command\\_framework_compat.py',
   'PYMODULE'),
  ('setuptools._distutils.command',
   'c:\\users\\user\\appdata\\local\\programs\\python\\python37\\lib\\site-packages\\setuptools\\_distutils\\command\\__init__.py',
   'PYMODULE'),
  ('setuptools._distutils.cmd',
   'c:\\users\\user\\appdata\\local\\programs\\python\\python37\\lib\\site-packages\\setuptools\\_distutils\\cmd.py',
   'PYMODULE'),
  ('setuptools._distutils.ccompiler',
   'c:\\users\\user\\appdata\\local\\programs\\python\\python37\\lib\\site-packages\\setuptools\\_distutils\\ccompiler.py',
   'PYMODULE'),
  ('setuptools._distutils.bcppcompiler',
   'c:\\users\\user\\appdata\\local\\programs\\python\\python37\\lib\\site-packages\\setuptools\\_distutils\\bcppcompiler.py',
   'PYMODULE'),
  ('setuptools._distutils.archive_util',
   'c:\\users\\user\\appdata\\local\\programs\\python\\python37\\lib\\site-packages\\setuptools\\_distutils\\archive_util.py',
   'PYMODULE'),
  ('setuptools._distutils._msvccompiler',
   'c:\\users\\user\\appdata\\local\\programs\\python\\python37\\lib\\site-packages\\setuptools\\_distutils\\_msvccompiler.py',
   'PYMODULE'),
  ('unittest.mock',
   'c:\\users\\user\\appdata\\local\\programs\\python\\python37\\lib\\unittest\\mock.py',
   'PYMODULE'),
  ('unittest',
   'c:\\users\\user\\appdata\\local\\programs\\python\\python37\\lib\\unittest\\__init__.py',
   'PYMODULE'),
  ('unittest.signals',
   'c:\\users\\user\\appdata\\local\\programs\\python\\python37\\lib\\unittest\\signals.py',
   'PYMODULE'),
  ('unittest.main',
   'c:\\users\\user\\appdata\\local\\programs\\python\\python37\\lib\\unittest\\main.py',
   'PYMODULE'),
  ('unittest.runner',
   'c:\\users\\user\\appdata\\local\\programs\\python\\python37\\lib\\unittest\\runner.py',
   'PYMODULE'),
  ('unittest.loader',
   'c:\\users\\user\\appdata\\local\\programs\\python\\python37\\lib\\unittest\\loader.py',
   'PYMODULE'),
  ('unittest.suite',
   'c:\\users\\user\\appdata\\local\\programs\\python\\python37\\lib\\unittest\\suite.py',
   'PYMODULE'),
  ('unittest.case',
   'c:\\users\\user\\appdata\\local\\programs\\python\\python37\\lib\\unittest\\case.py',
   'PYMODULE'),
  ('difflib',
   'c:\\users\\user\\appdata\\local\\programs\\python\\python37\\lib\\difflib.py',
   'PYMODULE'),
  ('unittest.result',
   'c:\\users\\user\\appdata\\local\\programs\\python\\python37\\lib\\unittest\\result.py',
   'PYMODULE'),
  ('unittest.util',
   'c:\\users\\user\\appdata\\local\\programs\\python\\python37\\lib\\unittest\\util.py',
   'PYMODULE'),
  ('setuptools._distutils._macos_compat',
   'c:\\users\\user\\appdata\\local\\programs\\python\\python37\\lib\\site-packages\\setuptools\\_distutils\\_macos_compat.py',
   'PYMODULE'),
  ('setuptools._distutils._log',
   'c:\\users\\user\\appdata\\local\\programs\\python\\python37\\lib\\site-packages\\setuptools\\_distutils\\_log.py',
   'PYMODULE'),
  ('setuptools._distutils._functools',
   'c:\\users\\user\\appdata\\local\\programs\\python\\python37\\lib\\site-packages\\setuptools\\_distutils\\_functools.py',
   'PYMODULE'),
  ('setuptools._distutils._collections',
   'c:\\users\\user\\appdata\\local\\programs\\python\\python37\\lib\\site-packages\\setuptools\\_distutils\\_collections.py',
   'PYMODULE'),
  ('setuptools._distutils',
   'c:\\users\\user\\appdata\\local\\programs\\python\\python37\\lib\\site-packages\\setuptools\\_distutils\\__init__.py',
   'PYMODULE'),
  ('setuptools._vendor.zipp',
   'c:\\users\\user\\appdata\\local\\programs\\python\\python37\\lib\\site-packages\\setuptools\\_vendor\\zipp.py',
   'PYMODULE'),
  ('setuptools._vendor.typing_extensions',
   'c:\\users\\user\\appdata\\local\\programs\\python\\python37\\lib\\site-packages\\setuptools\\_vendor\\typing_extensions.py',
   'PYMODULE'),
  ('setuptools._vendor.tomli._types',
   'c:\\users\\user\\appdata\\local\\programs\\python\\python37\\lib\\site-packages\\setuptools\\_vendor\\tomli\\_types.py',
   'PYMODULE'),
  ('setuptools._vendor.tomli._re',
   'c:\\users\\user\\appdata\\local\\programs\\python\\python37\\lib\\site-packages\\setuptools\\_vendor\\tomli\\_re.py',
   'PYMODULE'),
  ('setuptools._vendor.tomli._parser',
   'c:\\users\\user\\appdata\\local\\programs\\python\\python37\\lib\\site-packages\\setuptools\\_vendor\\tomli\\_parser.py',
   'PYMODULE'),
  ('setuptools._vendor.tomli',
   'c:\\users\\user\\appdata\\local\\programs\\python\\python37\\lib\\site-packages\\setuptools\\_vendor\\tomli\\__init__.py',
   'PYMODULE'),
  ('setuptools._vendor.packaging.version',
   'c:\\users\\user\\appdata\\local\\programs\\python\\python37\\lib\\site-packages\\setuptools\\_vendor\\packaging\\version.py',
   'PYMODULE'),
  ('setuptools._vendor.packaging.utils',
   'c:\\users\\user\\appdata\\local\\programs\\python\\python37\\lib\\site-packages\\setuptools\\_vendor\\packaging\\utils.py',
   'PYMODULE'),
  ('setuptools._vendor.packaging.tags',
   'c:\\users\\user\\appdata\\local\\programs\\python\\python37\\lib\\site-packages\\setuptools\\_vendor\\packaging\\tags.py',
   'PYMODULE'),
  ('setuptools._vendor.packaging.specifiers',
   'c:\\users\\user\\appdata\\local\\programs\\python\\python37\\lib\\site-packages\\setuptools\\_vendor\\packaging\\specifiers.py',
   'PYMODULE'),
  ('setuptools._vendor.packaging.requirements',
   'c:\\users\\user\\appdata\\local\\programs\\python\\python37\\lib\\site-packages\\setuptools\\_vendor\\packaging\\requirements.py',
   'PYMODULE'),
  ('setuptools._vendor.packaging.metadata',
   'c:\\users\\user\\appdata\\local\\programs\\python\\python37\\lib\\site-packages\\setuptools\\_vendor\\packaging\\metadata.py',
   'PYMODULE'),
  ('setuptools._vendor.packaging.markers',
   'c:\\users\\user\\appdata\\local\\programs\\python\\python37\\lib\\site-packages\\setuptools\\_vendor\\packaging\\markers.py',
   'PYMODULE'),
  ('setuptools._vendor.packaging._tokenizer',
   'c:\\users\\user\\appdata\\local\\programs\\python\\python37\\lib\\site-packages\\setuptools\\_vendor\\packaging\\_tokenizer.py',
   'PYMODULE'),
  ('setuptools._vendor.packaging._structures',
   'c:\\users\\user\\appdata\\local\\programs\\python\\python37\\lib\\site-packages\\setuptools\\_vendor\\packaging\\_structures.py',
   'PYMODULE'),
  ('setuptools._vendor.packaging._parser',
   'c:\\users\\user\\appdata\\local\\programs\\python\\python37\\lib\\site-packages\\setuptools\\_vendor\\packaging\\_parser.py',
   'PYMODULE'),
  ('setuptools._vendor.packaging._musllinux',
   'c:\\users\\user\\appdata\\local\\programs\\python\\python37\\lib\\site-packages\\setuptools\\_vendor\\packaging\\_musllinux.py',
   'PYMODULE'),
  ('setuptools._vendor.packaging._manylinux',
   'c:\\users\\user\\appdata\\local\\programs\\python\\python37\\lib\\site-packages\\setuptools\\_vendor\\packaging\\_manylinux.py',
   'PYMODULE'),
  ('setuptools._vendor.packaging._elffile',
   'c:\\users\\user\\appdata\\local\\programs\\python\\python37\\lib\\site-packages\\setuptools\\_vendor\\packaging\\_elffile.py',
   'PYMODULE'),
  ('setuptools._vendor.packaging',
   'c:\\users\\user\\appdata\\local\\programs\\python\\python37\\lib\\site-packages\\setuptools\\_vendor\\packaging\\__init__.py',
   'PYMODULE'),
  ('setuptools._vendor.ordered_set',
   'c:\\users\\user\\appdata\\local\\programs\\python\\python37\\lib\\site-packages\\setuptools\\_vendor\\ordered_set.py',
   'PYMODULE'),
  ('setuptools._vendor.more_itertools.recipes',
   'c:\\users\\user\\appdata\\local\\programs\\python\\python37\\lib\\site-packages\\setuptools\\_vendor\\more_itertools\\recipes.py',
   'PYMODULE'),
  ('setuptools._vendor.more_itertools.more',
   'c:\\users\\user\\appdata\\local\\programs\\python\\python37\\lib\\site-packages\\setuptools\\_vendor\\more_itertools\\more.py',
   'PYMODULE'),
  ('setuptools._vendor.more_itertools',
   'c:\\users\\user\\appdata\\local\\programs\\python\\python37\\lib\\site-packages\\setuptools\\_vendor\\more_itertools\\__init__.py',
   'PYMODULE'),
  ('setuptools._vendor.jaraco.text',
   'c:\\users\\user\\appdata\\local\\programs\\python\\python37\\lib\\site-packages\\setuptools\\_vendor\\jaraco\\text\\__init__.py',
   'PYMODULE'),
  ('setuptools.extern',
   'c:\\users\\user\\appdata\\local\\programs\\python\\python37\\lib\\site-packages\\setuptools\\extern\\__init__.py',
   'PYMODULE'),
  ('setuptools._vendor.jaraco.functools',
   'c:\\users\\user\\appdata\\local\\programs\\python\\python37\\lib\\site-packages\\setuptools\\_vendor\\jaraco\\functools.py',
   'PYMODULE'),
  ('setuptools._vendor.jaraco.context',
   'c:\\users\\user\\appdata\\local\\programs\\python\\python37\\lib\\site-packages\\setuptools\\_vendor\\jaraco\\context.py',
   'PYMODULE'),
  ('setuptools._vendor.jaraco',
   'c:\\users\\user\\appdata\\local\\programs\\python\\python37\\lib\\site-packages\\setuptools\\_vendor\\jaraco\\__init__.py',
   'PYMODULE'),
  ('setuptools._vendor.importlib_resources.simple',
   'c:\\users\\user\\appdata\\local\\programs\\python\\python37\\lib\\site-packages\\setuptools\\_vendor\\importlib_resources\\simple.py',
   'PYMODULE'),
  ('setuptools._vendor.importlib_resources.readers',
   'c:\\users\\user\\appdata\\local\\programs\\python\\python37\\lib\\site-packages\\setuptools\\_vendor\\importlib_resources\\readers.py',
   'PYMODULE'),
  ('setuptools._vendor.importlib_resources.abc',
   'c:\\users\\user\\appdata\\local\\programs\\python\\python37\\lib\\site-packages\\setuptools\\_vendor\\importlib_resources\\abc.py',
   'PYMODULE'),
  ('setuptools._vendor.importlib_resources._legacy',
   'c:\\users\\user\\appdata\\local\\programs\\python\\python37\\lib\\site-packages\\setuptools\\_vendor\\importlib_resources\\_legacy.py',
   'PYMODULE'),
  ('setuptools._vendor.importlib_resources._itertools',
   'c:\\users\\user\\appdata\\local\\programs\\python\\python37\\lib\\site-packages\\setuptools\\_vendor\\importlib_resources\\_itertools.py',
   'PYMODULE'),
  ('setuptools._vendor.importlib_resources._compat',
   'c:\\users\\user\\appdata\\local\\programs\\python\\python37\\lib\\site-packages\\setuptools\\_vendor\\importlib_resources\\_compat.py',
   'PYMODULE'),
  ('setuptools._vendor.importlib_resources._common',
   'c:\\users\\user\\appdata\\local\\programs\\python\\python37\\lib\\site-packages\\setuptools\\_vendor\\importlib_resources\\_common.py',
   'PYMODULE'),
  ('setuptools._vendor.importlib_resources._adapters',
   'c:\\users\\user\\appdata\\local\\programs\\python\\python37\\lib\\site-packages\\setuptools\\_vendor\\importlib_resources\\_adapters.py',
   'PYMODULE'),
  ('setuptools._vendor.importlib_resources',
   'c:\\users\\user\\appdata\\local\\programs\\python\\python37\\lib\\site-packages\\setuptools\\_vendor\\importlib_resources\\__init__.py',
   'PYMODULE'),
  ('setuptools._vendor.importlib_metadata._text',
   'c:\\users\\user\\appdata\\local\\programs\\python\\python37\\lib\\site-packages\\setuptools\\_vendor\\importlib_metadata\\_text.py',
   'PYMODULE'),
  ('setuptools._vendor.importlib_metadata._py39compat',
   'c:\\users\\user\\appdata\\local\\programs\\python\\python37\\lib\\site-packages\\setuptools\\_vendor\\importlib_metadata\\_py39compat.py',
   'PYMODULE'),
  ('setuptools._vendor.importlib_metadata._meta',
   'c:\\users\\user\\appdata\\local\\programs\\python\\python37\\lib\\site-packages\\setuptools\\_vendor\\importlib_metadata\\_meta.py',
   'PYMODULE'),
  ('setuptools._vendor.importlib_metadata._itertools',
   'c:\\users\\user\\appdata\\local\\programs\\python\\python37\\lib\\site-packages\\setuptools\\_vendor\\importlib_metadata\\_itertools.py',
   'PYMODULE'),
  ('setuptools._vendor.importlib_metadata._functools',
   'c:\\users\\user\\appdata\\local\\programs\\python\\python37\\lib\\site-packages\\setuptools\\_vendor\\importlib_metadata\\_functools.py',
   'PYMODULE'),
  ('setuptools._vendor.importlib_metadata._compat',
   'c:\\users\\user\\appdata\\local\\programs\\python\\python37\\lib\\site-packages\\setuptools\\_vendor\\importlib_metadata\\_compat.py',
   'PYMODULE'),
  ('setuptools._vendor.importlib_metadata._collections',
   'c:\\users\\user\\appdata\\local\\programs\\python\\python37\\lib\\site-packages\\setuptools\\_vendor\\importlib_metadata\\_collections.py',
   'PYMODULE'),
  ('setuptools._vendor.importlib_metadata._adapters',
   'c:\\users\\user\\appdata\\local\\programs\\python\\python37\\lib\\site-packages\\setuptools\\_vendor\\importlib_metadata\\_adapters.py',
   'PYMODULE'),
  ('setuptools._vendor.importlib_metadata',
   'c:\\users\\user\\appdata\\local\\programs\\python\\python37\\lib\\site-packages\\setuptools\\_vendor\\importlib_metadata\\__init__.py',
   'PYMODULE'),
  ('csv',
   'c:\\users\\user\\appdata\\local\\programs\\python\\python37\\lib\\csv.py',
   'PYMODULE'),
  ('setuptools._vendor',
   'c:\\users\\user\\appdata\\local\\programs\\python\\python37\\lib\\site-packages\\setuptools\\_vendor\\__init__.py',
   'PYMODULE'),
  ('setuptools.msvc',
   'c:\\users\\user\\appdata\\local\\programs\\python\\python37\\lib\\site-packages\\setuptools\\msvc.py',
   'PYMODULE'),
  ('json',
   'c:\\users\\user\\appdata\\local\\programs\\python\\python37\\lib\\json\\__init__.py',
   'PYMODULE'),
  ('json.encoder',
   'c:\\users\\user\\appdata\\local\\programs\\python\\python37\\lib\\json\\encoder.py',
   'PYMODULE'),
  ('json.decoder',
   'c:\\users\\user\\appdata\\local\\programs\\python\\python37\\lib\\json\\decoder.py',
   'PYMODULE'),
  ('json.scanner',
   'c:\\users\\user\\appdata\\local\\programs\\python\\python37\\lib\\json\\scanner.py',
   'PYMODULE'),
  ('distutils.command.build_ext',
   'c:\\users\\user\\appdata\\local\\programs\\python\\python37\\lib\\distutils\\command\\build_ext.py',
   'PYMODULE'),
  ('distutils._msvccompiler',
   'c:\\users\\user\\appdata\\local\\programs\\python\\python37\\lib\\distutils\\_msvccompiler.py',
   'PYMODULE'),
  ('distutils.extension',
   'c:\\users\\user\\appdata\\local\\programs\\python\\python37\\lib\\distutils\\extension.py',
   'PYMODULE'),
  ('setuptools.logging',
   'c:\\users\\user\\appdata\\local\\programs\\python\\python37\\lib\\site-packages\\setuptools\\logging.py',
   'PYMODULE'),
  ('setuptools.monkey',
   'c:\\users\\user\\appdata\\local\\programs\\python\\python37\\lib\\site-packages\\setuptools\\monkey.py',
   'PYMODULE'),
  ('distutils.filelist',
   'c:\\users\\user\\appdata\\local\\programs\\python\\python37\\lib\\distutils\\filelist.py',
   'PYMODULE'),
  ('setuptools.discovery',
   'c:\\users\\user\\appdata\\local\\programs\\python\\python37\\lib\\site-packages\\setuptools\\discovery.py',
   'PYMODULE'),
  ('setuptools.errors',
   'c:\\users\\user\\appdata\\local\\programs\\python\\python37\\lib\\site-packages\\setuptools\\errors.py',
   'PYMODULE'),
  ('setuptools.depends',
   'c:\\users\\user\\appdata\\local\\programs\\python\\python37\\lib\\site-packages\\setuptools\\depends.py',
   'PYMODULE'),
  ('setuptools._imp',
   'c:\\users\\user\\appdata\\local\\programs\\python\\python37\\lib\\site-packages\\setuptools\\_imp.py',
   'PYMODULE'),
  ('setuptools.dist',
   'c:\\users\\user\\appdata\\local\\programs\\python\\python37\\lib\\site-packages\\setuptools\\dist.py',
   'PYMODULE'),
  ('setuptools.installer',
   'c:\\users\\user\\appdata\\local\\programs\\python\\python37\\lib\\site-packages\\setuptools\\installer.py',
   'PYMODULE'),
  ('setuptools.wheel',
   'c:\\users\\user\\appdata\\local\\programs\\python\\python37\\lib\\site-packages\\setuptools\\wheel.py',
   'PYMODULE'),
  ('setuptools.archive_util',
   'c:\\users\\user\\appdata\\local\\programs\\python\\python37\\lib\\site-packages\\setuptools\\archive_util.py',
   'PYMODULE'),
  ('setuptools._path',
   'c:\\users\\user\\appdata\\local\\programs\\python\\python37\\lib\\site-packages\\setuptools\\_path.py',
   'PYMODULE'),
  ('setuptools.command.egg_info',
   'c:\\users\\user\\appdata\\local\\programs\\python\\python37\\lib\\site-packages\\setuptools\\command\\egg_info.py',
   'PYMODULE'),
  ('setuptools.glob',
   'c:\\users\\user\\appdata\\local\\programs\\python\\python37\\lib\\site-packages\\setuptools\\glob.py',
   'PYMODULE'),
  ('setuptools.unicode_utils',
   'c:\\users\\user\\appdata\\local\\programs\\python\\python37\\lib\\site-packages\\setuptools\\unicode_utils.py',
   'PYMODULE'),
  ('setuptools.command.bdist_egg',
   'c:\\users\\user\\appdata\\local\\programs\\python\\python37\\lib\\site-packages\\setuptools\\command\\bdist_egg.py',
   'PYMODULE'),
  ('setuptools.command.setopt',
   'c:\\users\\user\\appdata\\local\\programs\\python\\python37\\lib\\site-packages\\setuptools\\command\\setopt.py',
   'PYMODULE'),
  ('setuptools.command.sdist',
   'c:\\users\\user\\appdata\\local\\programs\\python\\python37\\lib\\site-packages\\setuptools\\command\\sdist.py',
   'PYMODULE'),
  ('setuptools.command.build',
   'c:\\users\\user\\appdata\\local\\programs\\python\\python37\\lib\\site-packages\\setuptools\\command\\build.py',
   'PYMODULE'),
  ('distutils.command.build',
   'c:\\users\\user\\appdata\\local\\programs\\python\\python37\\lib\\distutils\\command\\build.py',
   'PYMODULE'),
  ('distutils.command.sdist',
   'c:\\users\\user\\appdata\\local\\programs\\python\\python37\\lib\\distutils\\command\\sdist.py',
   'PYMODULE'),
  ('setuptools._importlib',
   'c:\\users\\user\\appdata\\local\\programs\\python\\python37\\lib\\site-packages\\setuptools\\_importlib.py',
   'PYMODULE'),
  ('importlib_metadata',
   'c:\\users\\user\\appdata\\local\\programs\\python\\python37\\lib\\site-packages\\importlib_metadata\\__init__.py',
   'PYMODULE'),
  ('importlib_metadata._itertools',
   'c:\\users\\user\\appdata\\local\\programs\\python\\python37\\lib\\site-packages\\importlib_metadata\\_itertools.py',
   'PYMODULE'),
  ('importlib_metadata._functools',
   'c:\\users\\user\\appdata\\local\\programs\\python\\python37\\lib\\site-packages\\importlib_metadata\\_functools.py',
   'PYMODULE'),
  ('importlib_metadata._compat',
   'c:\\users\\user\\appdata\\local\\programs\\python\\python37\\lib\\site-packages\\importlib_metadata\\_compat.py',
   'PYMODULE'),
  ('importlib_metadata._collections',
   'c:\\users\\user\\appdata\\local\\programs\\python\\python37\\lib\\site-packages\\importlib_metadata\\_collections.py',
   'PYMODULE'),
  ('importlib_metadata._py39compat',
   'c:\\users\\user\\appdata\\local\\programs\\python\\python37\\lib\\site-packages\\importlib_metadata\\_py39compat.py',
   'PYMODULE'),
  ('importlib_metadata._meta',
   'c:\\users\\user\\appdata\\local\\programs\\python\\python37\\lib\\site-packages\\importlib_metadata\\_meta.py',
   'PYMODULE'),
  ('importlib_metadata._adapters',
   'c:\\users\\user\\appdata\\local\\programs\\python\\python37\\lib\\site-packages\\importlib_metadata\\_adapters.py',
   'PYMODULE'),
  ('importlib_metadata._text',
   'c:\\users\\user\\appdata\\local\\programs\\python\\python37\\lib\\site-packages\\importlib_metadata\\_text.py',
   'PYMODULE'),
  ('zipp',
   'c:\\users\\user\\appdata\\local\\programs\\python\\python37\\lib\\site-packages\\zipp\\__init__.py',
   'PYMODULE'),
  ('zipp.py310compat',
   'c:\\users\\user\\appdata\\local\\programs\\python\\python37\\lib\\site-packages\\zipp\\py310compat.py',
   'PYMODULE'),
  ('setuptools.config.pyprojecttoml',
   'c:\\users\\user\\appdata\\local\\programs\\python\\python37\\lib\\site-packages\\setuptools\\config\\pyprojecttoml.py',
   'PYMODULE'),
  ('setuptools.config._validate_pyproject',
   'c:\\users\\user\\appdata\\local\\programs\\python\\python37\\lib\\site-packages\\setuptools\\config\\_validate_pyproject\\__init__.py',
   'PYMODULE'),
  ('setuptools.config._validate_pyproject.fastjsonschema_validations',
   'c:\\users\\user\\appdata\\local\\programs\\python\\python37\\lib\\site-packages\\setuptools\\config\\_validate_pyproject\\fastjsonschema_validations.py',
   'PYMODULE'),
  ('setuptools.config._validate_pyproject.fastjsonschema_exceptions',
   'c:\\users\\user\\appdata\\local\\programs\\python\\python37\\lib\\site-packages\\setuptools\\config\\_validate_pyproject\\fastjsonschema_exceptions.py',
   'PYMODULE'),
  ('setuptools.config._validate_pyproject.extra_validations',
   'c:\\users\\user\\appdata\\local\\programs\\python\\python37\\lib\\site-packages\\setuptools\\config\\_validate_pyproject\\extra_validations.py',
   'PYMODULE'),
  ('setuptools.config._validate_pyproject.error_reporting',
   'c:\\users\\user\\appdata\\local\\programs\\python\\python37\\lib\\site-packages\\setuptools\\config\\_validate_pyproject\\error_reporting.py',
   'PYMODULE'),
  ('setuptools.config._validate_pyproject.formats',
   'c:\\users\\user\\appdata\\local\\programs\\python\\python37\\lib\\site-packages\\setuptools\\config\\_validate_pyproject\\formats.py',
   'PYMODULE'),
  ('setuptools.config._apply_pyprojecttoml',
   'c:\\users\\user\\appdata\\local\\programs\\python\\python37\\lib\\site-packages\\setuptools\\config\\_apply_pyprojecttoml.py',
   'PYMODULE'),
  ('setuptools.config.expand',
   'c:\\users\\user\\appdata\\local\\programs\\python\\python37\\lib\\site-packages\\setuptools\\config\\expand.py',
   'PYMODULE'),
  ('setuptools.config.setupcfg',
   'c:\\users\\user\\appdata\\local\\programs\\python\\python37\\lib\\site-packages\\setuptools\\config\\setupcfg.py',
   'PYMODULE'),
  ('setuptools.config',
   'c:\\users\\user\\appdata\\local\\programs\\python\\python37\\lib\\site-packages\\setuptools\\config\\__init__.py',
   'PYMODULE'),
  ('setuptools.command',
   'c:\\users\\user\\appdata\\local\\programs\\python\\python37\\lib\\site-packages\\setuptools\\command\\__init__.py',
   'PYMODULE'),
  ('distutils.command.bdist',
   'c:\\users\\user\\appdata\\local\\programs\\python\\python37\\lib\\distutils\\command\\bdist.py',
   'PYMODULE'),
  ('setuptools._normalization',
   'c:\\users\\user\\appdata\\local\\programs\\python\\python37\\lib\\site-packages\\setuptools\\_normalization.py',
   'PYMODULE'),
  ('setuptools._entry_points',
   'c:\\users\\user\\appdata\\local\\programs\\python\\python37\\lib\\site-packages\\setuptools\\_entry_points.py',
   'PYMODULE'),
  ('setuptools._itertools',
   'c:\\users\\user\\appdata\\local\\programs\\python\\python37\\lib\\site-packages\\setuptools\\_itertools.py',
   'PYMODULE'),
  ('setuptools._reqs',
   'c:\\users\\user\\appdata\\local\\programs\\python\\python37\\lib\\site-packages\\setuptools\\_reqs.py',
   'PYMODULE'),
  ('setuptools.windows_support',
   'c:\\users\\user\\appdata\\local\\programs\\python\\python37\\lib\\site-packages\\setuptools\\windows_support.py',
   'PYMODULE'),
  ('setuptools.extension',
   'c:\\users\\user\\appdata\\local\\programs\\python\\python37\\lib\\site-packages\\setuptools\\extension.py',
   'PYMODULE'),
  ('setuptools.version',
   'c:\\users\\user\\appdata\\local\\programs\\python\\python37\\lib\\site-packages\\setuptools\\version.py',
   'PYMODULE'),
  ('setuptools.warnings',
   'c:\\users\\user\\appdata\\local\\programs\\python\\python37\\lib\\site-packages\\setuptools\\warnings.py',
   'PYMODULE'),
  ('distutils.util',
   'c:\\users\\user\\appdata\\local\\programs\\python\\python37\\lib\\distutils\\util.py',
   'PYMODULE'),
  ('distutils.errors',
   'c:\\users\\user\\appdata\\local\\programs\\python\\python37\\lib\\distutils\\errors.py',
   'PYMODULE'),
  ('distutils.core',
   'c:\\users\\user\\appdata\\local\\programs\\python\\python37\\lib\\distutils\\core.py',
   'PYMODULE'),
  ('distutils.config',
   'c:\\users\\user\\appdata\\local\\programs\\python\\python37\\lib\\distutils\\config.py',
   'PYMODULE'),
  ('_distutils_hack.override',
   'c:\\users\\user\\appdata\\local\\programs\\python\\python37\\lib\\site-packages\\_distutils_hack\\override.py',
   'PYMODULE'),
  ('nturl2path',
   'c:\\users\\user\\appdata\\local\\programs\\python\\python37\\lib\\nturl2path.py',
   'PYMODULE'),
  ('ftplib',
   'c:\\users\\user\\appdata\\local\\programs\\python\\python37\\lib\\ftplib.py',
   'PYMODULE'),
  ('netrc',
   'c:\\users\\user\\appdata\\local\\programs\\python\\python37\\lib\\netrc.py',
   'PYMODULE'),
  ('http.cookiejar',
   'c:\\users\\user\\appdata\\local\\programs\\python\\python37\\lib\\http\\cookiejar.py',
   'PYMODULE'),
  ('stringprep',
   'c:\\users\\user\\appdata\\local\\programs\\python\\python37\\lib\\stringprep.py',
   'PYMODULE'),
  ('tracemalloc',
   'c:\\users\\user\\appdata\\local\\programs\\python\\python37\\lib\\tracemalloc.py',
   'PYMODULE'),
  ('_py_abc',
   'c:\\users\\user\\appdata\\local\\programs\\python\\python37\\lib\\_py_abc.py',
   'PYMODULE'),
  ('redis',
   'c:\\users\\user\\appdata\\local\\programs\\python\\python37\\lib\\site-packages\\redis\\__init__.py',
   'PYMODULE'),
  ('redis.utils',
   'c:\\users\\user\\appdata\\local\\programs\\python\\python37\\lib\\site-packages\\redis\\utils.py',
   'PYMODULE'),
  ('cryptography',
   'c:\\users\\user\\appdata\\local\\programs\\python\\python37\\lib\\site-packages\\cryptography\\__init__.py',
   'PYMODULE'),
  ('cryptography.hazmat.bindings.openssl.binding',
   'c:\\users\\user\\appdata\\local\\programs\\python\\python37\\lib\\site-packages\\cryptography\\hazmat\\bindings\\openssl\\binding.py',
   'PYMODULE'),
  ('cryptography.hazmat.bindings',
   'c:\\users\\user\\appdata\\local\\programs\\python\\python37\\lib\\site-packages\\cryptography\\hazmat\\bindings\\__init__.py',
   'PYMODULE'),
  ('cryptography.hazmat',
   'c:\\users\\user\\appdata\\local\\programs\\python\\python37\\lib\\site-packages\\cryptography\\hazmat\\__init__.py',
   'PYMODULE'),
  ('cryptography.exceptions',
   'c:\\users\\user\\appdata\\local\\programs\\python\\python37\\lib\\site-packages\\cryptography\\exceptions.py',
   'PYMODULE'),
  ('cryptography.hazmat.bindings.openssl._conditional',
   'c:\\users\\user\\appdata\\local\\programs\\python\\python37\\lib\\site-packages\\cryptography\\hazmat\\bindings\\openssl\\_conditional.py',
   'PYMODULE'),
  ('cryptography.hazmat.bindings.openssl',
   'c:\\users\\user\\appdata\\local\\programs\\python\\python37\\lib\\site-packages\\cryptography\\hazmat\\bindings\\openssl\\__init__.py',
   'PYMODULE'),
  ('cryptography.hazmat.backends.openssl.utils',
   'c:\\users\\user\\appdata\\local\\programs\\python\\python37\\lib\\site-packages\\cryptography\\hazmat\\backends\\openssl\\utils.py',
   'PYMODULE'),
  ('cryptography.hazmat.primitives.asymmetric.utils',
   'c:\\users\\user\\appdata\\local\\programs\\python\\python37\\lib\\site-packages\\cryptography\\hazmat\\primitives\\asymmetric\\utils.py',
   'PYMODULE'),
  ('cryptography.hazmat.primitives.asymmetric',
   'c:\\users\\user\\appdata\\local\\programs\\python\\python37\\lib\\site-packages\\cryptography\\hazmat\\primitives\\asymmetric\\__init__.py',
   'PYMODULE'),
  ('cryptography.hazmat.primitives.asymmetric.x25519',
   'c:\\users\\user\\appdata\\local\\programs\\python\\python37\\lib\\site-packages\\cryptography\\hazmat\\primitives\\asymmetric\\x25519.py',
   'PYMODULE'),
  ('cryptography.hazmat.primitives._serialization',
   'c:\\users\\user\\appdata\\local\\programs\\python\\python37\\lib\\site-packages\\cryptography\\hazmat\\primitives\\_serialization.py',
   'PYMODULE'),
  ('cryptography.hazmat.primitives.asymmetric.x448',
   'c:\\users\\user\\appdata\\local\\programs\\python\\python37\\lib\\site-packages\\cryptography\\hazmat\\primitives\\asymmetric\\x448.py',
   'PYMODULE'),
  ('cryptography.hazmat.primitives.asymmetric.ed25519',
   'c:\\users\\user\\appdata\\local\\programs\\python\\python37\\lib\\site-packages\\cryptography\\hazmat\\primitives\\asymmetric\\ed25519.py',
   'PYMODULE'),
  ('cryptography.hazmat.primitives.asymmetric.ed448',
   'c:\\users\\user\\appdata\\local\\programs\\python\\python37\\lib\\site-packages\\cryptography\\hazmat\\primitives\\asymmetric\\ed448.py',
   'PYMODULE'),
  ('cryptography.hazmat.primitives.asymmetric.dsa',
   'c:\\users\\user\\appdata\\local\\programs\\python\\python37\\lib\\site-packages\\cryptography\\hazmat\\primitives\\asymmetric\\dsa.py',
   'PYMODULE'),
  ('cryptography.hazmat.primitives.asymmetric.dh',
   'c:\\users\\user\\appdata\\local\\programs\\python\\python37\\lib\\site-packages\\cryptography\\hazmat\\primitives\\asymmetric\\dh.py',
   'PYMODULE'),
  ('cryptography.hazmat.primitives.asymmetric.rsa',
   'c:\\users\\user\\appdata\\local\\programs\\python\\python37\\lib\\site-packages\\cryptography\\hazmat\\primitives\\asymmetric\\rsa.py',
   'PYMODULE'),
  ('cryptography.hazmat.primitives._asymmetric',
   'c:\\users\\user\\appdata\\local\\programs\\python\\python37\\lib\\site-packages\\cryptography\\hazmat\\primitives\\_asymmetric.py',
   'PYMODULE'),
  ('cryptography.hazmat.primitives.asymmetric.ec',
   'c:\\users\\user\\appdata\\local\\programs\\python\\python37\\lib\\site-packages\\cryptography\\hazmat\\primitives\\asymmetric\\ec.py',
   'PYMODULE'),
  ('cryptography.hazmat._oid',
   'c:\\users\\user\\appdata\\local\\programs\\python\\python37\\lib\\site-packages\\cryptography\\hazmat\\_oid.py',
   'PYMODULE'),
  ('cryptography.hazmat.primitives.hashes',
   'c:\\users\\user\\appdata\\local\\programs\\python\\python37\\lib\\site-packages\\cryptography\\hazmat\\primitives\\hashes.py',
   'PYMODULE'),
  ('cryptography.hazmat.primitives',
   'c:\\users\\user\\appdata\\local\\programs\\python\\python37\\lib\\site-packages\\cryptography\\hazmat\\primitives\\__init__.py',
   'PYMODULE'),
  ('cryptography.hazmat.primitives.serialization',
   'c:\\users\\user\\appdata\\local\\programs\\python\\python37\\lib\\site-packages\\cryptography\\hazmat\\primitives\\serialization\\__init__.py',
   'PYMODULE'),
  ('cryptography.hazmat.primitives.serialization.base',
   'c:\\users\\user\\appdata\\local\\programs\\python\\python37\\lib\\site-packages\\cryptography\\hazmat\\primitives\\serialization\\base.py',
   'PYMODULE'),
  ('cryptography.hazmat.primitives.asymmetric.types',
   'c:\\users\\user\\appdata\\local\\programs\\python\\python37\\lib\\site-packages\\cryptography\\hazmat\\primitives\\asymmetric\\types.py',
   'PYMODULE'),
  ('cryptography.hazmat.primitives.serialization.ssh',
   'c:\\users\\user\\appdata\\local\\programs\\python\\python37\\lib\\site-packages\\cryptography\\hazmat\\primitives\\serialization\\ssh.py',
   'PYMODULE'),
  ('cryptography.hazmat.primitives.ciphers.modes',
   'c:\\users\\user\\appdata\\local\\programs\\python\\python37\\lib\\site-packages\\cryptography\\hazmat\\primitives\\ciphers\\modes.py',
   'PYMODULE'),
  ('cryptography.hazmat.primitives._cipheralgorithm',
   'c:\\users\\user\\appdata\\local\\programs\\python\\python37\\lib\\site-packages\\cryptography\\hazmat\\primitives\\_cipheralgorithm.py',
   'PYMODULE'),
  ('cryptography.hazmat.primitives.ciphers.algorithms',
   'c:\\users\\user\\appdata\\local\\programs\\python\\python37\\lib\\site-packages\\cryptography\\hazmat\\primitives\\ciphers\\algorithms.py',
   'PYMODULE'),
  ('cryptography.hazmat.primitives.ciphers',
   'c:\\users\\user\\appdata\\local\\programs\\python\\python37\\lib\\site-packages\\cryptography\\hazmat\\primitives\\ciphers\\__init__.py',
   'PYMODULE'),
  ('cryptography.hazmat.primitives.ciphers.base',
   'c:\\users\\user\\appdata\\local\\programs\\python\\python37\\lib\\site-packages\\cryptography\\hazmat\\primitives\\ciphers\\base.py',
   'PYMODULE'),
  ('cryptography.hazmat.primitives.asymmetric.padding',
   'c:\\users\\user\\appdata\\local\\programs\\python\\python37\\lib\\site-packages\\cryptography\\hazmat\\primitives\\asymmetric\\padding.py',
   'PYMODULE'),
  ('cryptography.hazmat.primitives.constant_time',
   'c:\\users\\user\\appdata\\local\\programs\\python\\python37\\lib\\site-packages\\cryptography\\hazmat\\primitives\\constant_time.py',
   'PYMODULE'),
  ('cryptography.hazmat.backends.openssl.rsa',
   'c:\\users\\user\\appdata\\local\\programs\\python\\python37\\lib\\site-packages\\cryptography\\hazmat\\backends\\openssl\\rsa.py',
   'PYMODULE'),
  ('cryptography.hazmat.backends.openssl.ec',
   'c:\\users\\user\\appdata\\local\\programs\\python\\python37\\lib\\site-packages\\cryptography\\hazmat\\backends\\openssl\\ec.py',
   'PYMODULE'),
  ('cryptography.hazmat.backends.openssl.decode_asn1',
   'c:\\users\\user\\appdata\\local\\programs\\python\\python37\\lib\\site-packages\\cryptography\\hazmat\\backends\\openssl\\decode_asn1.py',
   'PYMODULE'),
  ('cryptography.hazmat.backends.openssl.cmac',
   'c:\\users\\user\\appdata\\local\\programs\\python\\python37\\lib\\site-packages\\cryptography\\hazmat\\backends\\openssl\\cmac.py',
   'PYMODULE'),
  ('cryptography.hazmat.backends.openssl.ciphers',
   'c:\\users\\user\\appdata\\local\\programs\\python\\python37\\lib\\site-packages\\cryptography\\hazmat\\backends\\openssl\\ciphers.py',
   'PYMODULE'),
  ('cryptography.hazmat.backends.openssl.backend',
   'c:\\users\\user\\appdata\\local\\programs\\python\\python37\\lib\\site-packages\\cryptography\\hazmat\\backends\\openssl\\backend.py',
   'PYMODULE'),
  ('cryptography.hazmat.primitives.serialization.pkcs12',
   'c:\\users\\user\\appdata\\local\\programs\\python\\python37\\lib\\site-packages\\cryptography\\hazmat\\primitives\\serialization\\pkcs12.py',
   'PYMODULE'),
  ('cryptography.hazmat.backends.openssl.aead',
   'c:\\users\\user\\appdata\\local\\programs\\python\\python37\\lib\\site-packages\\cryptography\\hazmat\\backends\\openssl\\aead.py',
   'PYMODULE'),
  ('cryptography.hazmat.primitives.ciphers.aead',
   'c:\\users\\user\\appdata\\local\\programs\\python\\python37\\lib\\site-packages\\cryptography\\hazmat\\primitives\\ciphers\\aead.py',
   'PYMODULE'),
  ('cryptography.hazmat.backends.openssl',
   'c:\\users\\user\\appdata\\local\\programs\\python\\python37\\lib\\site-packages\\cryptography\\hazmat\\backends\\openssl\\__init__.py',
   'PYMODULE'),
  ('cryptography.hazmat.backends',
   'c:\\users\\user\\appdata\\local\\programs\\python\\python37\\lib\\site-packages\\cryptography\\hazmat\\backends\\__init__.py',
   'PYMODULE'),
  ('cryptography.x509',
   'c:\\users\\user\\appdata\\local\\programs\\python\\python37\\lib\\site-packages\\cryptography\\x509\\__init__.py',
   'PYMODULE'),
  ('cryptography.x509.ocsp',
   'c:\\users\\user\\appdata\\local\\programs\\python\\python37\\lib\\site-packages\\cryptography\\x509\\ocsp.py',
   'PYMODULE'),
  ('cryptography.x509.oid',
   'c:\\users\\user\\appdata\\local\\programs\\python\\python37\\lib\\site-packages\\cryptography\\x509\\oid.py',
   'PYMODULE'),
  ('cryptography.x509.name',
   'c:\\users\\user\\appdata\\local\\programs\\python\\python37\\lib\\site-packages\\cryptography\\x509\\name.py',
   'PYMODULE'),
  ('cryptography.x509.general_name',
   'c:\\users\\user\\appdata\\local\\programs\\python\\python37\\lib\\site-packages\\cryptography\\x509\\general_name.py',
   'PYMODULE'),
  ('ipaddress',
   'c:\\users\\user\\appdata\\local\\programs\\python\\python37\\lib\\ipaddress.py',
   'PYMODULE'),
  ('cryptography.x509.extensions',
   'c:\\users\\user\\appdata\\local\\programs\\python\\python37\\lib\\site-packages\\cryptography\\x509\\extensions.py',
   'PYMODULE'),
  ('cryptography.x509.base',
   'c:\\users\\user\\appdata\\local\\programs\\python\\python37\\lib\\site-packages\\cryptography\\x509\\base.py',
   'PYMODULE'),
  ('cryptography.x509.certificate_transparency',
   'c:\\users\\user\\appdata\\local\\programs\\python\\python37\\lib\\site-packages\\cryptography\\x509\\certificate_transparency.py',
   'PYMODULE'),
  ('cryptography.utils',
   'c:\\users\\user\\appdata\\local\\programs\\python\\python37\\lib\\site-packages\\cryptography\\utils.py',
   'PYMODULE'),
  ('cryptography.__about__',
   'c:\\users\\user\\appdata\\local\\programs\\python\\python37\\lib\\site-packages\\cryptography\\__about__.py',
   'PYMODULE'),
  ('hiredis',
   'c:\\users\\user\\appdata\\local\\programs\\python\\python37\\lib\\site-packages\\hiredis\\__init__.py',
   'PYMODULE'),
  ('hiredis.version',
   'c:\\users\\user\\appdata\\local\\programs\\python\\python37\\lib\\site-packages\\hiredis\\version.py',
   'PYMODULE'),
  ('redis.sentinel',
   'c:\\users\\user\\appdata\\local\\programs\\python\\python37\\lib\\site-packages\\redis\\sentinel.py',
   'PYMODULE'),
  ('redis.commands',
   'c:\\users\\user\\appdata\\local\\programs\\python\\python37\\lib\\site-packages\\redis\\commands\\__init__.py',
   'PYMODULE'),
  ('redis.commands.sentinel',
   'c:\\users\\user\\appdata\\local\\programs\\python\\python37\\lib\\site-packages\\redis\\commands\\sentinel.py',
   'PYMODULE'),
  ('redis.commands.redismodules',
   'c:\\users\\user\\appdata\\local\\programs\\python\\python37\\lib\\site-packages\\redis\\commands\\redismodules.py',
   'PYMODULE'),
  ('redis.commands.graph',
   'c:\\users\\user\\appdata\\local\\programs\\python\\python37\\lib\\site-packages\\redis\\commands\\graph\\__init__.py',
   'PYMODULE'),
  ('redis.commands.graph.path',
   'c:\\users\\user\\appdata\\local\\programs\\python\\python37\\lib\\site-packages\\redis\\commands\\graph\\path.py',
   'PYMODULE'),
  ('redis.commands.graph.node',
   'c:\\users\\user\\appdata\\local\\programs\\python\\python37\\lib\\site-packages\\redis\\commands\\graph\\node.py',
   'PYMODULE'),
  ('redis.commands.graph.edge',
   'c:\\users\\user\\appdata\\local\\programs\\python\\python37\\lib\\site-packages\\redis\\commands\\graph\\edge.py',
   'PYMODULE'),
  ('redis.commands.graph.commands',
   'c:\\users\\user\\appdata\\local\\programs\\python\\python37\\lib\\site-packages\\redis\\commands\\graph\\commands.py',
   'PYMODULE'),
  ('redis.commands.graph.query_result',
   'c:\\users\\user\\appdata\\local\\programs\\python\\python37\\lib\\site-packages\\redis\\commands\\graph\\query_result.py',
   'PYMODULE'),
  ('redis.commands.graph.execution_plan',
   'c:\\users\\user\\appdata\\local\\programs\\python\\python37\\lib\\site-packages\\redis\\commands\\graph\\execution_plan.py',
   'PYMODULE'),
  ('redis.commands.graph.exceptions',
   'c:\\users\\user\\appdata\\local\\programs\\python\\python37\\lib\\site-packages\\redis\\commands\\graph\\exceptions.py',
   'PYMODULE'),
  ('redis.commands.bf',
   'c:\\users\\user\\appdata\\local\\programs\\python\\python37\\lib\\site-packages\\redis\\commands\\bf\\__init__.py',
   'PYMODULE'),
  ('redis.commands.bf.info',
   'c:\\users\\user\\appdata\\local\\programs\\python\\python37\\lib\\site-packages\\redis\\commands\\bf\\info.py',
   'PYMODULE'),
  ('redis.commands.bf.commands',
   'c:\\users\\user\\appdata\\local\\programs\\python\\python37\\lib\\site-packages\\redis\\commands\\bf\\commands.py',
   'PYMODULE'),
  ('redis.commands.timeseries',
   'c:\\users\\user\\appdata\\local\\programs\\python\\python37\\lib\\site-packages\\redis\\commands\\timeseries\\__init__.py',
   'PYMODULE'),
  ('redis.commands.timeseries.utils',
   'c:\\users\\user\\appdata\\local\\programs\\python\\python37\\lib\\site-packages\\redis\\commands\\timeseries\\utils.py',
   'PYMODULE'),
  ('redis.commands.timeseries.info',
   'c:\\users\\user\\appdata\\local\\programs\\python\\python37\\lib\\site-packages\\redis\\commands\\timeseries\\info.py',
   'PYMODULE'),
  ('redis.commands.timeseries.commands',
   'c:\\users\\user\\appdata\\local\\programs\\python\\python37\\lib\\site-packages\\redis\\commands\\timeseries\\commands.py',
   'PYMODULE'),
  ('redis.typing',
   'c:\\users\\user\\appdata\\local\\programs\\python\\python37\\lib\\site-packages\\redis\\typing.py',
   'PYMODULE'),
  ('redis.asyncio.connection',
   'c:\\users\\user\\appdata\\local\\programs\\python\\python37\\lib\\site-packages\\redis\\asyncio\\connection.py',
   'PYMODULE'),
  ('redis.asyncio',
   'c:\\users\\user\\appdata\\local\\programs\\python\\python37\\lib\\site-packages\\redis\\asyncio\\__init__.py',
   'PYMODULE'),
  ('redis.asyncio.utils',
   'c:\\users\\user\\appdata\\local\\programs\\python\\python37\\lib\\site-packages\\redis\\asyncio\\utils.py',
   'PYMODULE'),
  ('redis.asyncio.sentinel',
   'c:\\users\\user\\appdata\\local\\programs\\python\\python37\\lib\\site-packages\\redis\\asyncio\\sentinel.py',
   'PYMODULE'),
  ('redis.asyncio.parser',
   'c:\\users\\user\\appdata\\local\\programs\\python\\python37\\lib\\site-packages\\redis\\asyncio\\parser.py',
   'PYMODULE'),
  ('redis.asyncio.cluster',
   'c:\\users\\user\\appdata\\local\\programs\\python\\python37\\lib\\site-packages\\redis\\asyncio\\cluster.py',
   'PYMODULE'),
  ('redis.crc',
   'c:\\users\\user\\appdata\\local\\programs\\python\\python37\\lib\\site-packages\\redis\\crc.py',
   'PYMODULE'),
  ('redis.asyncio.lock',
   'c:\\users\\user\\appdata\\local\\programs\\python\\python37\\lib\\site-packages\\redis\\asyncio\\lock.py',
   'PYMODULE'),
  ('uuid',
   'c:\\users\\user\\appdata\\local\\programs\\python\\python37\\lib\\uuid.py',
   'PYMODULE'),
  ('ctypes.util',
   'c:\\users\\user\\appdata\\local\\programs\\python\\python37\\lib\\ctypes\\util.py',
   'PYMODULE'),
  ('ctypes._aix',
   'c:\\users\\user\\appdata\\local\\programs\\python\\python37\\lib\\ctypes\\_aix.py',
   'PYMODULE'),
  ('ctypes.macholib.dyld',
   'c:\\users\\user\\appdata\\local\\programs\\python\\python37\\lib\\ctypes\\macholib\\dyld.py',
   'PYMODULE'),
  ('ctypes.macholib',
   'c:\\users\\user\\appdata\\local\\programs\\python\\python37\\lib\\ctypes\\macholib\\__init__.py',
   'PYMODULE'),
  ('ctypes.macholib.dylib',
   'c:\\users\\user\\appdata\\local\\programs\\python\\python37\\lib\\ctypes\\macholib\\dylib.py',
   'PYMODULE'),
  ('ctypes.macholib.framework',
   'c:\\users\\user\\appdata\\local\\programs\\python\\python37\\lib\\ctypes\\macholib\\framework.py',
   'PYMODULE'),
  ('netbios',
   'c:\\users\\user\\appdata\\local\\programs\\python\\python37\\lib\\site-packages\\win32\\lib\\netbios.py',
   'PYMODULE'),
  ('redis.asyncio.client',
   'c:\\users\\user\\appdata\\local\\programs\\python\\python37\\lib\\site-packages\\redis\\asyncio\\client.py',
   'PYMODULE'),
  ('redis.asyncio.retry',
   'c:\\users\\user\\appdata\\local\\programs\\python\\python37\\lib\\site-packages\\redis\\asyncio\\retry.py',
   'PYMODULE'),
  ('async_timeout',
   'c:\\users\\user\\appdata\\local\\programs\\python\\python37\\lib\\site-packages\\async_timeout\\__init__.py',
   'PYMODULE'),
  ('asyncio',
   'c:\\users\\user\\appdata\\local\\programs\\python\\python37\\lib\\asyncio\\__init__.py',
   'PYMODULE'),
  ('asyncio.unix_events',
   'c:\\users\\user\\appdata\\local\\programs\\python\\python37\\lib\\asyncio\\unix_events.py',
   'PYMODULE'),
  ('asyncio.log',
   'c:\\users\\user\\appdata\\local\\programs\\python\\python37\\lib\\asyncio\\log.py',
   'PYMODULE'),
  ('asyncio.windows_events',
   'c:\\users\\user\\appdata\\local\\programs\\python\\python37\\lib\\asyncio\\windows_events.py',
   'PYMODULE'),
  ('asyncio.windows_utils',
   'c:\\users\\user\\appdata\\local\\programs\\python\\python37\\lib\\asyncio\\windows_utils.py',
   'PYMODULE'),
  ('asyncio.selector_events',
   'c:\\users\\user\\appdata\\local\\programs\\python\\python37\\lib\\asyncio\\selector_events.py',
   'PYMODULE'),
  ('asyncio.proactor_events',
   'c:\\users\\user\\appdata\\local\\programs\\python\\python37\\lib\\asyncio\\proactor_events.py',
   'PYMODULE'),
  ('asyncio.base_subprocess',
   'c:\\users\\user\\appdata\\local\\programs\\python\\python37\\lib\\asyncio\\base_subprocess.py',
   'PYMODULE'),
  ('asyncio.subprocess',
   'c:\\users\\user\\appdata\\local\\programs\\python\\python37\\lib\\asyncio\\subprocess.py',
   'PYMODULE'),
  ('asyncio.streams',
   'c:\\users\\user\\appdata\\local\\programs\\python\\python37\\lib\\asyncio\\streams.py',
   'PYMODULE'),
  ('asyncio.queues',
   'c:\\users\\user\\appdata\\local\\programs\\python\\python37\\lib\\asyncio\\queues.py',
   'PYMODULE'),
  ('asyncio.runners',
   'c:\\users\\user\\appdata\\local\\programs\\python\\python37\\lib\\asyncio\\runners.py',
   'PYMODULE'),
  ('asyncio.tasks',
   'c:\\users\\user\\appdata\\local\\programs\\python\\python37\\lib\\asyncio\\tasks.py',
   'PYMODULE'),
  ('asyncio.locks',
   'c:\\users\\user\\appdata\\local\\programs\\python\\python37\\lib\\asyncio\\locks.py',
   'PYMODULE'),
  ('asyncio.base_tasks',
   'c:\\users\\user\\appdata\\local\\programs\\python\\python37\\lib\\asyncio\\base_tasks.py',
   'PYMODULE'),
  ('asyncio.sslproto',
   'c:\\users\\user\\appdata\\local\\programs\\python\\python37\\lib\\asyncio\\sslproto.py',
   'PYMODULE'),
  ('asyncio.transports',
   'c:\\users\\user\\appdata\\local\\programs\\python\\python37\\lib\\asyncio\\transports.py',
   'PYMODULE'),
  ('asyncio.base_events',
   'c:\\users\\user\\appdata\\local\\programs\\python\\python37\\lib\\asyncio\\base_events.py',
   'PYMODULE'),
  ('asyncio.protocols',
   'c:\\users\\user\\appdata\\local\\programs\\python\\python37\\lib\\asyncio\\protocols.py',
   'PYMODULE'),
  ('asyncio.futures',
   'c:\\users\\user\\appdata\\local\\programs\\python\\python37\\lib\\asyncio\\futures.py',
   'PYMODULE'),
  ('asyncio.events',
   'c:\\users\\user\\appdata\\local\\programs\\python\\python37\\lib\\asyncio\\events.py',
   'PYMODULE'),
  ('asyncio.coroutines',
   'c:\\users\\user\\appdata\\local\\programs\\python\\python37\\lib\\asyncio\\coroutines.py',
   'PYMODULE'),
  ('asyncio.base_futures',
   'c:\\users\\user\\appdata\\local\\programs\\python\\python37\\lib\\asyncio\\base_futures.py',
   'PYMODULE'),
  ('asyncio.format_helpers',
   'c:\\users\\user\\appdata\\local\\programs\\python\\python37\\lib\\asyncio\\format_helpers.py',
   'PYMODULE'),
  ('asyncio.constants',
   'c:\\users\\user\\appdata\\local\\programs\\python\\python37\\lib\\asyncio\\constants.py',
   'PYMODULE'),
  ('redis.compat',
   'c:\\users\\user\\appdata\\local\\programs\\python\\python37\\lib\\site-packages\\redis\\compat.py',
   'PYMODULE'),
  ('redis.commands.search',
   'c:\\users\\user\\appdata\\local\\programs\\python\\python37\\lib\\site-packages\\redis\\commands\\search\\__init__.py',
   'PYMODULE'),
  ('redis.commands.search.commands',
   'c:\\users\\user\\appdata\\local\\programs\\python\\python37\\lib\\site-packages\\redis\\commands\\search\\commands.py',
   'PYMODULE'),
  ('redis.commands.search.suggestion',
   'c:\\users\\user\\appdata\\local\\programs\\python\\python37\\lib\\site-packages\\redis\\commands\\search\\suggestion.py',
   'PYMODULE'),
  ('redis.commands.search.result',
   'c:\\users\\user\\appdata\\local\\programs\\python\\python37\\lib\\site-packages\\redis\\commands\\search\\result.py',
   'PYMODULE'),
  ('redis.commands.search.query',
   'c:\\users\\user\\appdata\\local\\programs\\python\\python37\\lib\\site-packages\\redis\\commands\\search\\query.py',
   'PYMODULE'),
  ('redis.commands.search.document',
   'c:\\users\\user\\appdata\\local\\programs\\python\\python37\\lib\\site-packages\\redis\\commands\\search\\document.py',
   'PYMODULE'),
  ('redis.commands.search.aggregation',
   'c:\\users\\user\\appdata\\local\\programs\\python\\python37\\lib\\site-packages\\redis\\commands\\search\\aggregation.py',
   'PYMODULE'),
  ('redis.commands.search._util',
   'c:\\users\\user\\appdata\\local\\programs\\python\\python37\\lib\\site-packages\\redis\\commands\\search\\_util.py',
   'PYMODULE'),
  ('redis.commands.json',
   'c:\\users\\user\\appdata\\local\\programs\\python\\python37\\lib\\site-packages\\redis\\commands\\json\\__init__.py',
   'PYMODULE'),
  ('redis.commands.json.decoders',
   'c:\\users\\user\\appdata\\local\\programs\\python\\python37\\lib\\site-packages\\redis\\commands\\json\\decoders.py',
   'PYMODULE'),
  ('redis.commands.json.commands',
   'c:\\users\\user\\appdata\\local\\programs\\python\\python37\\lib\\site-packages\\redis\\commands\\json\\commands.py',
   'PYMODULE'),
  ('redis.commands.json.path',
   'c:\\users\\user\\appdata\\local\\programs\\python\\python37\\lib\\site-packages\\redis\\commands\\json\\path.py',
   'PYMODULE'),
  ('redis.commands.json._util',
   'c:\\users\\user\\appdata\\local\\programs\\python\\python37\\lib\\site-packages\\redis\\commands\\json\\_util.py',
   'PYMODULE'),
  ('redis.commands.parser',
   'c:\\users\\user\\appdata\\local\\programs\\python\\python37\\lib\\site-packages\\redis\\commands\\parser.py',
   'PYMODULE'),
  ('redis.commands.helpers',
   'c:\\users\\user\\appdata\\local\\programs\\python\\python37\\lib\\site-packages\\redis\\commands\\helpers.py',
   'PYMODULE'),
  ('redis.commands.core',
   'c:\\users\\user\\appdata\\local\\programs\\python\\python37\\lib\\site-packages\\redis\\commands\\core.py',
   'PYMODULE'),
  ('redis.commands.cluster',
   'c:\\users\\user\\appdata\\local\\programs\\python\\python37\\lib\\site-packages\\redis\\commands\\cluster.py',
   'PYMODULE'),
  ('redis.exceptions',
   'c:\\users\\user\\appdata\\local\\programs\\python\\python37\\lib\\site-packages\\redis\\exceptions.py',
   'PYMODULE'),
  ('redis.credentials',
   'c:\\users\\user\\appdata\\local\\programs\\python\\python37\\lib\\site-packages\\redis\\credentials.py',
   'PYMODULE'),
  ('redis.connection',
   'c:\\users\\user\\appdata\\local\\programs\\python\\python37\\lib\\site-packages\\redis\\connection.py',
   'PYMODULE'),
  ('redis.ocsp',
   'c:\\users\\user\\appdata\\local\\programs\\python\\python37\\lib\\site-packages\\redis\\ocsp.py',
   'PYMODULE'),
  ('redis.retry',
   'c:\\users\\user\\appdata\\local\\programs\\python\\python37\\lib\\site-packages\\redis\\retry.py',
   'PYMODULE'),
  ('redis.cluster',
   'c:\\users\\user\\appdata\\local\\programs\\python\\python37\\lib\\site-packages\\redis\\cluster.py',
   'PYMODULE'),
  ('redis.lock',
   'c:\\users\\user\\appdata\\local\\programs\\python\\python37\\lib\\site-packages\\redis\\lock.py',
   'PYMODULE'),
  ('redis.client',
   'c:\\users\\user\\appdata\\local\\programs\\python\\python37\\lib\\site-packages\\redis\\client.py',
   'PYMODULE'),
  ('redis.backoff',
   'c:\\users\\user\\appdata\\local\\programs\\python\\python37\\lib\\site-packages\\redis\\backoff.py',
   'PYMODULE'),
  ('pythoncom',
   'c:\\users\\user\\appdata\\local\\programs\\python\\python37\\lib\\site-packages\\pythoncom.py',
   'PYMODULE'),
  ('pywintypes',
   'c:\\users\\user\\appdata\\local\\programs\\python\\python37\\lib\\site-packages\\win32\\lib\\pywintypes.py',
   'PYMODULE')],
 [('VCRUNTIME140.dll',
   'c:\\users\\user\\appdata\\local\\programs\\python\\python37\\VCRUNTIME140.dll',
   'BINARY'),
  ('python37.dll',
   'c:\\users\\user\\appdata\\local\\programs\\python\\python37\\python37.dll',
   'BINARY'),
  ('pywin32_system32\\pythoncom37.dll',
   'c:\\users\\user\\appdata\\local\\programs\\python\\python37\\lib\\site-packages\\pywin32_system32\\pythoncom37.dll',
   'BINARY'),
  ('pywin32_system32\\pywintypes37.dll',
   'c:\\users\\user\\appdata\\local\\programs\\python\\python37\\lib\\site-packages\\pywin32_system32\\pywintypes37.dll',
   'BINARY'),
  ('Python.Runtime.dll',
   'c:\\users\\user\\appdata\\local\\programs\\python\\python37\\lib\\site-packages\\Python.Runtime.dll',
   'BINARY'),
  ('_ctypes.pyd',
   'c:\\users\\user\\appdata\\local\\programs\\python\\python37\\DLLs\\_ctypes.pyd',
   'EXTENSION'),
  ('select.pyd',
   'c:\\users\\user\\appdata\\local\\programs\\python\\python37\\DLLs\\select.pyd',
   'EXTENSION'),
  ('_socket.pyd',
   'c:\\users\\user\\appdata\\local\\programs\\python\\python37\\DLLs\\_socket.pyd',
   'EXTENSION'),
  ('_hashlib.pyd',
   'c:\\users\\user\\appdata\\local\\programs\\python\\python37\\DLLs\\_hashlib.pyd',
   'EXTENSION'),
  ('_queue.pyd',
   'c:\\users\\user\\appdata\\local\\programs\\python\\python37\\DLLs\\_queue.pyd',
   'EXTENSION'),
  ('_lzma.pyd',
   'c:\\users\\user\\appdata\\local\\programs\\python\\python37\\DLLs\\_lzma.pyd',
   'EXTENSION'),
  ('_bz2.pyd',
   'c:\\users\\user\\appdata\\local\\programs\\python\\python37\\DLLs\\_bz2.pyd',
   'EXTENSION'),
  ('pyexpat.pyd',
   'c:\\users\\user\\appdata\\local\\programs\\python\\python37\\DLLs\\pyexpat.pyd',
   'EXTENSION'),
  ('_ssl.pyd',
   'c:\\users\\user\\appdata\\local\\programs\\python\\python37\\DLLs\\_ssl.pyd',
   'EXTENSION'),
  ('_contextvars.pyd',
   'c:\\users\\user\\appdata\\local\\programs\\python\\python37\\DLLs\\_contextvars.pyd',
   'EXTENSION'),
  ('_decimal.pyd',
   'c:\\users\\user\\appdata\\local\\programs\\python\\python37\\DLLs\\_decimal.pyd',
   'EXTENSION'),
  ('_multiprocessing.pyd',
   'c:\\users\\user\\appdata\\local\\programs\\python\\python37\\DLLs\\_multiprocessing.pyd',
   'EXTENSION'),
  ('win32\\win32api.pyd',
   'c:\\users\\user\\appdata\\local\\programs\\python\\python37\\lib\\site-packages\\win32\\win32api.pyd',
   'EXTENSION'),
  ('_distutils_findvs.pyd',
   'c:\\users\\user\\appdata\\local\\programs\\python\\python37\\DLLs\\_distutils_findvs.pyd',
   'EXTENSION'),
  ('unicodedata.pyd',
   'c:\\users\\user\\appdata\\local\\programs\\python\\python37\\DLLs\\unicodedata.pyd',
   'EXTENSION'),
  ('_cffi_backend.cp37-win_amd64.pyd',
   'c:\\users\\user\\appdata\\local\\programs\\python\\python37\\lib\\site-packages\\_cffi_backend.cp37-win_amd64.pyd',
   'EXTENSION'),
  ('cryptography\\hazmat\\bindings\\_rust.pyd',
   'c:\\users\\user\\appdata\\local\\programs\\python\\python37\\lib\\site-packages\\cryptography\\hazmat\\bindings\\_rust.pyd',
   'EXTENSION'),
  ('hiredis\\hiredis.cp37-win_amd64.pyd',
   'c:\\users\\user\\appdata\\local\\programs\\python\\python37\\lib\\site-packages\\hiredis\\hiredis.cp37-win_amd64.pyd',
   'EXTENSION'),
  ('win32\\win32wnet.pyd',
   'c:\\users\\user\\appdata\\local\\programs\\python\\python37\\lib\\site-packages\\win32\\win32wnet.pyd',
   'EXTENSION'),
  ('_overlapped.pyd',
   'c:\\users\\user\\appdata\\local\\programs\\python\\python37\\DLLs\\_overlapped.pyd',
   'EXTENSION'),
  ('_asyncio.pyd',
   'c:\\users\\user\\appdata\\local\\programs\\python\\python37\\DLLs\\_asyncio.pyd',
   'EXTENSION'),
  ('win32\\_win32sysloader.pyd',
   'c:\\users\\user\\appdata\\local\\programs\\python\\python37\\lib\\site-packages\\win32\\_win32sysloader.pyd',
   'EXTENSION'),
  ('clr.pyd',
   'c:\\users\\user\\appdata\\local\\programs\\python\\python37\\lib\\site-packages\\clr.pyd',
   'EXTENSION'),
  ('libcrypto-1_1-x64.dll',
   'c:\\users\\user\\appdata\\local\\programs\\python\\python37\\DLLs\\libcrypto-1_1-x64.dll',
   'BINARY'),
  ('libssl-1_1-x64.dll',
   'c:\\users\\user\\appdata\\local\\programs\\python\\python37\\DLLs\\libssl-1_1-x64.dll',
   'BINARY'),
  ('python3.dll',
   'c:\\users\\user\\appdata\\local\\programs\\python\\python37\\python3.dll',
   'BINARY')],
 [],
 [],
 [('base_library.zip',
   'C:\\Users\\User\\Desktop\\CLIENT_OPC_DA\\dwsim_and_opc_da\\build\\set_data_to_model\\base_library.zip',
   'DATA'),
  ('importlib_metadata-6.7.0.dist-info\\LICENSE',
   'c:\\users\\user\\appdata\\local\\programs\\python\\python37\\lib\\site-packages\\importlib_metadata-6.7.0.dist-info\\LICENSE',
   'DATA'),
  ('cryptography-41.0.1.dist-info\\LICENSE.BSD',
   'c:\\users\\user\\appdata\\local\\programs\\python\\python37\\lib\\site-packages\\cryptography-41.0.1.dist-info\\LICENSE.BSD',
   'DATA'),
  ('importlib_metadata-6.7.0.dist-info\\METADATA',
   'c:\\users\\user\\appdata\\local\\programs\\python\\python37\\lib\\site-packages\\importlib_metadata-6.7.0.dist-info\\METADATA',
   'DATA'),
  ('cryptography-41.0.1.dist-info\\WHEEL',
   'c:\\users\\user\\appdata\\local\\programs\\python\\python37\\lib\\site-packages\\cryptography-41.0.1.dist-info\\WHEEL',
   'DATA'),
  ('cryptography-41.0.1.dist-info\\top_level.txt',
   'c:\\users\\user\\appdata\\local\\programs\\python\\python37\\lib\\site-packages\\cryptography-41.0.1.dist-info\\top_level.txt',
   'DATA'),
  ('importlib_metadata-6.7.0.dist-info\\RECORD',
   'c:\\users\\user\\appdata\\local\\programs\\python\\python37\\lib\\site-packages\\importlib_metadata-6.7.0.dist-info\\RECORD',
   'DATA'),
  ('importlib_metadata-6.7.0.dist-info\\WHEEL',
   'c:\\users\\user\\appdata\\local\\programs\\python\\python37\\lib\\site-packages\\importlib_metadata-6.7.0.dist-info\\WHEEL',
   'DATA'),
  ('cryptography-41.0.1.dist-info\\LICENSE.APACHE',
   'c:\\users\\user\\appdata\\local\\programs\\python\\python37\\lib\\site-packages\\cryptography-41.0.1.dist-info\\LICENSE.APACHE',
   'DATA'),
  ('cryptography-41.0.1.dist-info\\METADATA',
   'c:\\users\\user\\appdata\\local\\programs\\python\\python37\\lib\\site-packages\\cryptography-41.0.1.dist-info\\METADATA',
   'DATA'),
  ('importlib_metadata-6.7.0.dist-info\\INSTALLER',
   'c:\\users\\user\\appdata\\local\\programs\\python\\python37\\lib\\site-packages\\importlib_metadata-6.7.0.dist-info\\INSTALLER',
   'DATA'),
  ('cryptography-41.0.1.dist-info\\INSTALLER',
   'c:\\users\\user\\appdata\\local\\programs\\python\\python37\\lib\\site-packages\\cryptography-41.0.1.dist-info\\INSTALLER',
   'DATA'),
  ('importlib_metadata-6.7.0.dist-info\\top_level.txt',
   'c:\\users\\user\\appdata\\local\\programs\\python\\python37\\lib\\site-packages\\importlib_metadata-6.7.0.dist-info\\top_level.txt',
   'DATA'),
  ('cryptography-41.0.1.dist-info\\LICENSE',
   'c:\\users\\user\\appdata\\local\\programs\\python\\python37\\lib\\site-packages\\cryptography-41.0.1.dist-info\\LICENSE',
   'DATA'),
  ('cryptography-41.0.1.dist-info\\RECORD',
   'c:\\users\\user\\appdata\\local\\programs\\python\\python37\\lib\\site-packages\\cryptography-41.0.1.dist-info\\RECORD',
   'DATA'),
  ('redis-4.6.0.dist-info\\METADATA',
   'c:\\users\\user\\appdata\\local\\programs\\python\\python37\\lib\\site-packages\\redis-4.6.0.dist-info\\METADATA',
   'DATA'),
  ('redis-4.6.0.dist-info\\LICENSE',
   'c:\\users\\user\\appdata\\local\\programs\\python\\python37\\lib\\site-packages\\redis-4.6.0.dist-info\\LICENSE',
   'DATA'),
  ('redis-4.6.0.dist-info\\REQUESTED',
   'c:\\users\\user\\appdata\\local\\programs\\python\\python37\\lib\\site-packages\\redis-4.6.0.dist-info\\REQUESTED',
   'DATA'),
  ('redis-4.6.0.dist-info\\WHEEL',
   'c:\\users\\user\\appdata\\local\\programs\\python\\python37\\lib\\site-packages\\redis-4.6.0.dist-info\\WHEEL',
   'DATA'),
  ('redis-4.6.0.dist-info\\top_level.txt',
   'c:\\users\\user\\appdata\\local\\programs\\python\\python37\\lib\\site-packages\\redis-4.6.0.dist-info\\top_level.txt',
   'DATA'),
  ('redis-4.6.0.dist-info\\RECORD',
   'c:\\users\\user\\appdata\\local\\programs\\python\\python37\\lib\\site-packages\\redis-4.6.0.dist-info\\RECORD',
   'DATA'),
  ('redis-4.6.0.dist-info\\INSTALLER',
   'c:\\users\\user\\appdata\\local\\programs\\python\\python37\\lib\\site-packages\\redis-4.6.0.dist-info\\INSTALLER',
   'DATA')],
 [])
